object={
	name="rock_red_generator_1_0"
	clamp_to_water_level=no
	render_under_water=no
	generated_content=yes
	layer="rock_layer"
	pdxmesh="rock_Lshape_red_mesh"
	count=99
	transform="5046.526367 0.000000 2298.834961 0.000000 0.787544 0.000000 -0.616258 0.586862 0.586862 0.586862
4721.200195 0.000000 2428.426514 0.000000 0.998295 0.000000 -0.058364 0.507581 0.507581 0.507581
4750.635742 0.000000 2424.336426 0.000000 0.216342 0.000000 -0.976318 0.693849 0.693849 0.693849
4749.141602 0.000000 2425.560303 0.000000 0.592679 0.000000 -0.805439 0.633722 0.633722 0.633722
4697.794922 0.000000 2440.094727 0.000000 0.958908 0.000000 -0.283718 0.540218 0.540218 0.540218
4691.727051 0.000000 2447.776855 0.000000 0.998582 0.000000 -0.053244 0.507381 0.507381 0.507381
4710.348633 0.000000 2492.793457 0.000000 0.501999 0.000000 -0.864868 0.645300 0.645300 0.645300
4758.229004 0.000000 2450.528809 0.000000 0.691781 0.000000 0.722108 0.389414 0.389414 0.389414
4757.169922 0.000000 2454.341553 0.000000 0.051203 0.000000 -0.998688 0.720792 0.720792 0.720792
4758.671387 0.000000 2454.114502 0.000000 0.715972 0.000000 -0.698129 0.614792 0.614792 0.614792
4756.318359 0.000000 2453.083740 0.000000 0.688399 0.000000 0.725332 0.377428 0.377428 0.377428
4759.576660 0.000000 2452.631104 0.000000 0.198307 0.000000 -0.980140 0.701968 0.701968 0.701968
4769.787598 0.000000 2491.685303 0.000000 0.997562 0.000000 -0.069781 0.509537 0.509537 0.509537
4665.047852 0.000000 2524.746826 0.000000 0.761234 0.000000 -0.648478 0.592304 0.592304 0.592304
4705.173828 0.000000 2495.737305 0.000000 0.338074 0.000000 0.941119 0.331668 0.331668 0.331668
4678.015137 0.000000 2548.733154 0.000000 0.994193 0.000000 -0.107611 0.514213 0.514213 0.514213
4667.505859 0.000000 2528.020752 0.000000 0.946087 0.000000 -0.323912 0.543482 0.543482 0.543482
4732.908203 0.000000 2505.972900 0.000000 0.994290 0.000000 0.106716 0.485879 0.485879 0.485879
4756.582031 0.000000 2504.764160 0.000000 0.726093 0.000000 -0.687597 0.599751 0.599751 0.599751
4857.352051 0.000000 2365.847656 0.000000 0.999263 0.000000 0.038387 0.494967 0.494967 0.494967
4924.365723 0.000000 2334.167480 0.000000 0.883942 0.000000 0.467597 0.433796 0.433796 0.433796
4913.329102 0.000000 2360.193848 0.000000 0.659535 0.000000 0.751674 0.382355 0.382355 0.382355
4918.418945 0.000000 2359.608887 0.000000 0.714665 0.000000 -0.699467 0.605401 0.605401 0.605401
4927.104004 0.000000 2336.029785 0.000000 0.909164 0.000000 0.416438 0.443381 0.443381 0.443381
4921.421875 0.000000 2358.296387 0.000000 0.994790 0.000000 0.101943 0.484856 0.484856 0.484856
4923.529785 0.000000 2362.679688 0.000000 0.926862 0.000000 -0.375401 0.552361 0.552361 0.552361
4923.477051 0.000000 2358.080566 0.000000 0.468690 0.000000 0.883363 0.338587 0.338587 0.338587
4834.817871 0.000000 2385.541748 0.000000 0.370248 0.000000 -0.928933 0.657659 0.657659 0.657659
4851.430664 0.000000 2372.339111 0.000000 0.162886 0.000000 -0.986645 0.679519 0.679519 0.679519
4852.447266 0.000000 2367.906982 0.000000 0.219398 0.000000 0.975635 0.321088 0.321088 0.321088
4895.101563 0.000000 2371.186279 0.000000 0.906817 0.000000 -0.421524 0.557249 0.557249 0.557249
4882.514160 0.000000 2381.861816 0.000000 0.358046 0.000000 -0.933704 0.660595 0.660595 0.660595
4972.619629 0.000000 2332.960693 0.000000 0.876239 0.000000 -0.481876 0.566779 0.566779 0.566779
4993.267090 0.000000 2312.585693 0.000000 0.374362 0.000000 0.927283 0.345595 0.345595 0.345595
4967.937988 0.000000 2325.317627 0.000000 0.963628 0.000000 0.267249 0.464609 0.464609 0.464609
4998.854004 0.000000 2310.398193 0.000000 0.734936 0.000000 0.678137 0.396743 0.396743 0.396743
4968.599609 0.000000 2329.985840 0.000000 0.469599 0.000000 -0.882880 0.651806 0.651806 0.651806
5000.796387 0.000000 2304.596436 0.000000 0.272578 0.000000 0.962134 0.331595 0.331595 0.331595
5008.654785 0.000000 2312.264404 0.000000 0.561500 0.000000 0.827477 0.370314 0.370314 0.370314
5014.525391 0.000000 2311.014404 0.000000 0.929739 0.000000 0.368220 0.449445 0.449445 0.449445
5011.639160 0.000000 2311.310059 0.000000 0.750852 0.000000 -0.660470 0.601763 0.601763 0.601763
5007.669434 0.000000 2310.825928 0.000000 0.876389 0.000000 -0.481603 0.574139 0.574139 0.574139
4972.435547 0.000000 2335.914795 0.000000 0.200396 0.000000 -0.979715 0.678412 0.678412 0.678412
5031.539551 0.000000 2347.103760 0.000000 1.000000 0.000000 -0.000062 0.500008 0.500008 0.500008
5052.611816 0.000000 2332.960693 0.000000 0.307288 0.000000 -0.951616 0.661174 0.661174 0.661174
5061.626465 0.000000 2325.283691 0.000000 0.999999 0.000000 -0.001634 0.500219 0.500219 0.500219
5085.905273 0.000000 2348.664307 0.000000 0.014879 0.000000 0.999889 0.287134 0.287134 0.287134
5088.465332 0.000000 2353.531738 0.000000 0.794824 0.000000 -0.606840 0.596049 0.596049 0.596049
4989.764648 0.000000 2389.769531 0.000000 0.648407 0.000000 0.761293 0.383561 0.383561 0.383561
5020.130371 0.000000 2393.755615 0.000000 0.983709 0.000000 -0.179766 0.524232 0.524232 0.524232
5004.357910 0.000000 2398.151855 0.000000 0.374054 0.000000 0.927407 0.329841 0.329841 0.329841
5014.774902 0.000000 2398.635010 0.000000 0.165071 0.000000 0.986282 0.311644 0.311644 0.311644
5018.817383 0.000000 2378.437744 0.000000 0.827328 0.000000 -0.561719 0.581305 0.581305 0.581305
5002.057617 0.000000 2398.608398 0.000000 0.855494 0.000000 -0.517812 0.577047 0.577047 0.577047
4993.267090 0.000000 2408.562256 0.000000 0.827753 0.000000 0.561093 0.423706 0.423706 0.423706
5017.221191 0.000000 2399.833008 0.000000 0.820219 0.000000 -0.572050 0.580582 0.580582 0.580582
5010.025879 0.000000 2401.430908 0.000000 0.675090 0.000000 -0.737736 0.613306 0.613306 0.613306
5005.854492 0.000000 2402.165527 0.000000 0.948654 0.000000 0.316317 0.453879 0.453879 0.453879
5002.395020 0.000000 2399.538086 0.000000 0.255125 0.000000 -0.966908 0.685835 0.685835 0.685835
5052.427734 0.000000 2367.906982 0.000000 0.165305 0.000000 0.986242 0.313780 0.313780 0.313780
5116.217773 0.000000 2402.115967 0.000000 0.995626 0.000000 0.093433 0.486334 0.486334 0.486334
4954.806152 0.000000 2449.526123 0.000000 0.952545 0.000000 0.304398 0.459768 0.459768 0.459768
4948.895996 0.000000 2447.370117 0.000000 0.106470 0.000000 -0.994316 0.697384 0.697384 0.697384
4946.430664 0.000000 2449.215332 0.000000 0.972429 0.000000 -0.233199 0.531789 0.531789 0.531789
4697.794922 0.000000 2568.063477 0.000000 0.437256 0.000000 0.899337 0.354828 0.354828 0.354828
4703.287109 0.000000 2578.767822 0.000000 0.652518 0.000000 0.757773 0.387724 0.387724 0.387724
4688.504395 0.000000 2577.477051 0.000000 0.908099 0.000000 0.418756 0.443045 0.443045 0.443045
4686.656250 0.000000 2579.054688 0.000000 0.984300 0.000000 -0.176502 0.524009 0.524009 0.524009
4671.872559 0.000000 2618.596436 0.000000 0.557905 0.000000 -0.829905 0.631730 0.631730 0.631730
4663.685547 0.000000 2623.207031 0.000000 0.517262 0.000000 0.855827 0.362552 0.362552 0.362552
4651.107910 0.000000 2603.879395 0.000000 0.994413 0.000000 0.105561 0.485742 0.485742 0.485742
4661.484863 0.000000 2615.689941 0.000000 0.967163 0.000000 0.254158 0.465356 0.465356 0.465356
4674.947754 0.000000 2601.316895 0.000000 0.993654 0.000000 -0.112479 0.516040 0.516040 0.516040
4700.416016 0.000000 2592.811523 0.000000 0.273847 0.000000 0.961773 0.324663 0.324663 0.324663
4697.596191 0.000000 2615.793457 0.000000 0.758457 0.000000 -0.651723 0.595166 0.595166 0.595166
4681.682617 0.000000 2611.234619 0.000000 0.148188 0.000000 -0.988959 0.687808 0.687808 0.687808
4701.661621 0.000000 2613.213379 0.000000 0.367122 0.000000 -0.930173 0.666754 0.666754 0.666754
4706.454102 0.000000 2609.176270 0.000000 0.003269 0.000000 0.999995 0.289850 0.289850 0.289850
4701.480957 0.000000 2615.689941 0.000000 0.370859 0.000000 -0.928689 0.660544 0.660544 0.660544
4748.108398 0.000000 2583.861328 0.000000 0.163221 0.000000 -0.986590 0.680881 0.680881 0.680881
4759.765137 0.000000 2576.843506 0.000000 0.054931 0.000000 -0.998490 0.694138 0.694138 0.694138
4676.081055 0.000000 2648.880615 0.000000 0.989606 0.000000 0.143806 0.481482 0.481482 0.481482
4685.944336 0.000000 2636.593994 0.000000 0.516051 0.000000 -0.856558 0.636096 0.636096 0.636096
4684.603027 0.000000 2647.888184 0.000000 0.001779 0.000000 -0.999998 0.716225 0.716225 0.716225
5252.592285 0.000000 2268.976318 0.000000 0.927373 0.000000 -0.374137 0.550931 0.550931 0.550931
5246.506836 0.000000 2266.842773 0.000000 0.727928 0.000000 0.685653 0.400412 0.400412 0.400412
5221.163574 0.000000 2302.393799 0.000000 0.370074 0.000000 -0.929002 0.662146 0.662146 0.662146
5335.524414 0.000000 2227.600098 0.000000 0.266147 0.000000 -0.963932 0.678696 0.678696 0.678696
5132.604004 0.000000 2332.960693 0.000000 0.866436 0.000000 0.499289 0.427173 0.427173 0.427173
5127.922363 0.000000 2325.317627 0.000000 0.108093 0.000000 -0.994141 0.687306 0.687306 0.687306
5127.967773 0.000000 2334.031982 0.000000 0.984440 0.000000 -0.175721 0.523328 0.523328 0.523328
5198.983887 0.000000 2306.840820 0.000000 0.883600 0.000000 0.468242 0.434549 0.434549 0.434549
5127.084473 0.000000 2336.029785 0.000000 0.468591 0.000000 -0.883415 0.645206 0.645206 0.645206
5132.869141 0.000000 2346.011963 0.000000 0.005955 0.000000 0.999982 0.292554 0.292554 0.292554
5152.411621 0.000000 2357.533447 0.000000 0.763033 0.000000 -0.646360 0.593344 0.593344 0.593344
5176.640625 0.000000 2341.468506 0.000000 0.849697 0.000000 -0.527272 0.574735 0.574735 0.574735
5203.988281 0.000000 2313.181152 0.000000 0.647088 0.000000 0.762415 0.388956 0.388956 0.388956
5209.701660 0.000000 2307.853516 0.000000 0.998188 0.000000 -0.060166 0.509063 0.509063 0.509063
5121.924316 0.000000 2403.260498 0.000000 0.285436 0.000000 0.958398 0.314143 0.314143 0.314143
"}
object={
	name="rock_red_generator_1_1"
	clamp_to_water_level=no
	render_under_water=no
	generated_content=yes
	layer="rock_layer"
	pdxmesh="rock_jagged_red_mesh"
	count=41
	transform="5041.410156 0.000000 2294.312012 0.000000 0.312719 0.000000 -0.949846 0.665446 0.665446 0.665446
4751.864746 0.000000 2426.643311 0.000000 0.047036 0.000000 -0.998893 0.702378 0.702378 0.702378
4776.373047 0.000000 2411.406494 0.000000 0.522594 0.000000 0.852582 0.366446 0.366446 0.366446
4775.517090 0.000000 2413.022949 0.000000 0.994931 0.000000 0.100563 0.485766 0.485766 0.485766
4697.367676 0.000000 2493.816406 0.000000 0.195229 0.000000 -0.980758 0.678070 0.678070 0.678070
4761.437500 0.000000 2454.272949 0.000000 0.852655 0.000000 -0.522474 0.577957 0.577957 0.577957
4759.741211 0.000000 2457.352783 0.000000 0.376915 0.000000 0.926248 0.339449 0.339449 0.339449
4721.441406 0.000000 2486.265137 0.000000 0.807932 0.000000 0.589276 0.417405 0.417405 0.417405
4768.002930 0.000000 2493.992920 0.000000 0.569190 0.000000 0.822206 0.366494 0.366494 0.366494
4662.503906 0.000000 2534.025146 0.000000 0.954180 0.000000 0.299232 0.459411 0.459411 0.459411
4679.772949 0.000000 2544.851318 0.000000 0.915907 0.000000 0.401391 0.446586 0.446586 0.446586
4753.290527 0.000000 2504.538818 0.000000 0.223156 0.000000 0.974783 0.328318 0.328318 0.328318
4932.439453 0.000000 2335.914795 0.000000 0.926609 0.000000 -0.376026 0.551490 0.551490 0.551490
4898.850586 0.000000 2371.780029 0.000000 0.898711 0.000000 -0.438541 0.568002 0.568002 0.568002
5000.078613 0.000000 2309.573242 0.000000 0.999760 0.000000 -0.021920 0.503120 0.503120 0.503120
4998.491699 0.000000 2363.891602 0.000000 0.950598 0.000000 0.310425 0.458157 0.458157 0.458157
5058.848145 0.000000 2324.933350 0.000000 0.100879 0.000000 -0.994899 0.694839 0.694839 0.694839
5084.000000 0.000000 2345.173340 0.000000 0.021456 0.000000 0.999770 0.301185 0.301185 0.301185
5082.494629 0.000000 2349.869629 0.000000 0.816389 0.000000 -0.577503 0.580541 0.580541 0.580541
4977.340332 0.000000 2397.839844 0.000000 0.209764 0.000000 -0.977752 0.676147 0.676147 0.676147
4981.453613 0.000000 2391.744629 0.000000 0.247998 0.000000 -0.968760 0.678308 0.678308 0.678308
5023.255859 0.000000 2386.814697 0.000000 0.299554 0.000000 -0.954080 0.664111 0.664111 0.664111
5025.012695 0.000000 2396.778076 0.000000 0.544469 0.000000 -0.838781 0.629177 0.629177 0.629177
5113.238281 0.000000 2404.564697 0.000000 0.311875 0.000000 -0.950123 0.683090 0.683090 0.683090
5110.222168 0.000000 2407.656494 0.000000 0.721224 0.000000 -0.692702 0.611760 0.611760 0.611760
5108.681641 0.000000 2407.192139 0.000000 0.556190 0.000000 -0.831055 0.643273 0.643273 0.643273
4965.916992 0.000000 2444.640869 0.000000 0.142808 0.000000 -0.989750 0.692803 0.692803 0.692803
4968.477051 0.000000 2449.508301 0.000000 0.599502 0.000000 -0.800374 0.621621 0.621621 0.621621
4693.490723 0.000000 2573.755615 0.000000 0.301706 0.000000 -0.953401 0.670131 0.670131 0.670131
4704.662109 0.000000 2575.010010 0.000000 0.288428 0.000000 0.957502 0.328318 0.328318 0.328318
4648.689941 0.000000 2600.194092 0.000000 0.075441 0.000000 0.997150 0.303642 0.303642 0.303642
4700.161621 0.000000 2617.700928 0.000000 0.860289 0.000000 0.509806 0.431353 0.431353 0.431353
4663.791016 0.000000 2625.265381 0.000000 0.887350 0.000000 0.461097 0.433838 0.433838 0.433838
4695.562500 0.000000 2633.077637 0.000000 0.809275 0.000000 0.587430 0.414883 0.414883 0.414883
5250.747070 0.000000 2265.058105 0.000000 0.932009 0.000000 0.362436 0.449815 0.449815 0.449815
5257.541504 0.000000 2263.879395 0.000000 0.461747 0.000000 -0.887012 0.644063 0.644063 0.644063
5257.159180 0.000000 2254.006348 0.000000 0.498047 0.000000 -0.867150 0.641218 0.641218 0.641218
5132.031250 0.000000 2354.416504 0.000000 0.868152 0.000000 0.496299 0.429987 0.429987 0.429987
5135.078125 0.000000 2339.194092 0.000000 0.987928 0.000000 0.154917 0.479613 0.479613 0.479613
5186.154785 0.000000 2339.271729 0.000000 0.904529 0.000000 -0.426413 0.558729 0.558729 0.558729
5201.916504 0.000000 2307.283936 0.000000 0.261766 0.000000 -0.965131 0.679972 0.679972 0.679972
"}
object={
	name="rock_red_generator_1_2"
	clamp_to_water_level=no
	render_under_water=no
	generated_content=yes
	layer="rock_layer"
	pdxmesh="rock_jagged_2_red_mesh"
	count=105
	transform="5038.487793 0.000000 2299.907227 0.000000 0.984274 0.000000 -0.176651 0.523276 0.523276 0.523276
5041.168945 0.000000 2300.457764 0.000000 0.139600 0.000000 -0.990208 0.683596 0.683596 0.683596
4726.557617 0.000000 2426.803711 0.000000 0.980040 0.000000 0.198802 0.472519 0.472519 0.472519
4778.875488 0.000000 2420.909912 0.000000 0.549595 0.000000 -0.835431 0.628382 0.628382 0.628382
4773.482910 0.000000 2413.794678 0.000000 0.504232 0.000000 -0.863568 0.644680 0.644680 0.644680
4774.150879 0.000000 2416.799316 0.000000 0.526187 0.000000 0.850369 0.362937 0.362937 0.362937
4778.398438 0.000000 2418.420166 0.000000 0.999584 0.000000 0.028839 0.496054 0.496054 0.496054
4696.380859 0.000000 2443.398682 0.000000 0.345361 0.000000 0.938470 0.332732 0.332732 0.332732
4695.562500 0.000000 2441.124512 0.000000 0.026367 0.000000 0.999652 0.286778 0.286778 0.286778
4711.193359 0.000000 2494.976318 0.000000 0.027367 0.000000 -0.999625 0.706148 0.706148 0.706148
4701.214355 0.000000 2494.346924 0.000000 0.395994 0.000000 0.918253 0.348063 0.348063 0.348063
4766.553711 0.000000 2490.788086 0.000000 0.706177 0.000000 -0.708035 0.603310 0.603310 0.603310
4773.247559 0.000000 2489.781494 0.000000 0.586161 0.000000 -0.810195 0.630630 0.630630 0.630630
4671.872559 0.000000 2522.619873 0.000000 0.397300 0.000000 -0.917689 0.656393 0.656393 0.656393
4668.420898 0.000000 2523.460938 0.000000 0.082604 0.000000 -0.996583 0.696901 0.696901 0.696901
4663.791016 0.000000 2529.288818 0.000000 0.539843 0.000000 0.841765 0.369359 0.369359 0.369359
4664.348145 0.000000 2539.177734 0.000000 0.957334 0.000000 -0.288985 0.537693 0.537693 0.537693
4764.808105 0.000000 2500.309082 0.000000 0.015910 0.000000 0.999873 0.294650 0.294650 0.294650
4760.102051 0.000000 2501.526367 0.000000 0.569989 0.000000 0.821652 0.372888 0.372888 0.372888
4741.986328 0.000000 2542.410400 0.000000 0.175052 0.000000 0.984559 0.309519 0.309519 0.309519
4908.397461 0.000000 2363.500000 0.000000 0.903509 0.000000 -0.428569 0.559157 0.559157 0.559157
4931.422852 0.000000 2340.346924 0.000000 0.306159 0.000000 -0.951981 0.661011 0.661011 0.661011
4951.352539 0.000000 2354.023682 0.000000 0.995654 0.000000 0.093132 0.487170 0.487170 0.487170
4919.561035 0.000000 2356.654541 0.000000 0.746149 0.000000 -0.665779 0.599126 0.599126 0.599126
4922.897949 0.000000 2359.465088 0.000000 0.988560 0.000000 0.150827 0.477434 0.477434 0.477434
4839.757324 0.000000 2384.890381 0.000000 0.938306 0.000000 0.345805 0.454602 0.454602 0.454602
4897.775391 0.000000 2376.110352 0.000000 0.242334 0.000000 -0.970193 0.680421 0.680421 0.680421
4894.537109 0.000000 2374.998779 0.000000 0.843162 0.000000 -0.537660 0.575536 0.575536 0.575536
4900.396484 0.000000 2368.866211 0.000000 0.841497 0.000000 0.540262 0.419493 0.419493 0.419493
4897.179688 0.000000 2370.136963 0.000000 0.844328 0.000000 -0.535827 0.580471 0.580471 0.580471
4897.073730 0.000000 2371.808594 0.000000 0.657560 0.000000 0.753402 0.378584 0.378584 0.378584
4996.229492 0.000000 2306.139404 0.000000 0.041411 0.000000 -0.999142 0.703508 0.703508 0.703508
4999.003418 0.000000 2306.840820 0.000000 0.979293 0.000000 0.202450 0.472619 0.472619 0.472619
5005.997070 0.000000 2310.996582 0.000000 0.811668 0.000000 -0.584119 0.592817 0.592817 0.592817
5009.189453 0.000000 2309.854492 0.000000 0.996948 0.000000 -0.078063 0.511256 0.511256 0.511256
5013.737305 0.000000 2308.955078 0.000000 0.850959 0.000000 -0.525233 0.575379 0.575379 0.575379
4994.429688 0.000000 2362.944336 0.000000 0.967364 0.000000 0.253390 0.464632 0.464632 0.464632
5028.888184 0.000000 2351.393555 0.000000 0.999952 0.000000 -0.009774 0.501283 0.501283 0.501283
5024.630859 0.000000 2351.064697 0.000000 0.397975 0.000000 0.917396 0.348055 0.348055 0.348055
5036.554688 0.000000 2344.803223 0.000000 0.903610 0.000000 -0.428357 0.558352 0.558352 0.558352
4999.562500 0.000000 2359.206299 0.000000 0.443250 0.000000 0.896398 0.340987 0.340987 0.340987
5068.077148 0.000000 2327.923828 0.000000 0.148560 0.000000 -0.988903 0.685274 0.685274 0.685274
5055.724121 0.000000 2330.399658 0.000000 0.990781 0.000000 0.135477 0.482155 0.482155 0.482155
5044.920898 0.000000 2352.552002 0.000000 0.356649 0.000000 -0.934238 0.658385 0.658385 0.658385
5057.332520 0.000000 2365.847656 0.000000 0.934075 0.000000 0.357076 0.452324 0.452324 0.452324
5092.035156 0.000000 2354.416504 0.000000 0.138885 0.000000 -0.990309 0.690121 0.690121 0.690121
4992.879883 0.000000 2381.447266 0.000000 0.943991 0.000000 -0.329972 0.543655 0.543655 0.543655
4987.988281 0.000000 2387.595703 0.000000 0.995412 0.000000 0.095680 0.487057 0.487057 0.487057
5011.415039 0.000000 2372.339111 0.000000 0.677521 0.000000 -0.735503 0.607904 0.607904 0.607904
5016.624023 0.000000 2384.545410 0.000000 0.913505 0.000000 0.406828 0.445817 0.445817 0.445817
5017.221191 0.000000 2367.840820 0.000000 0.306115 0.000000 -0.951995 0.664477 0.664477 0.664477
5004.924805 0.000000 2384.544189 0.000000 0.635372 0.000000 -0.772206 0.614541 0.614541 0.614541
5015.728027 0.000000 2394.384033 0.000000 0.443400 0.000000 -0.896324 0.647058 0.647058 0.647058
5025.906250 0.000000 2391.655518 0.000000 0.696448 0.000000 0.717607 0.390702 0.390702 0.390702
4964.575684 0.000000 2423.942871 0.000000 0.992809 0.000000 -0.119713 0.515818 0.515818 0.515818
4964.565430 0.000000 2420.160645 0.000000 0.990771 0.000000 0.135550 0.481636 0.481636 0.481636
5009.113281 0.000000 2399.488037 0.000000 0.396140 0.000000 -0.918190 0.669054 0.669054 0.669054
5005.388672 0.000000 2399.447754 0.000000 0.292587 0.000000 0.956239 0.317453 0.317453 0.317453
5116.525879 0.000000 2403.648682 0.000000 0.178785 0.000000 0.983888 0.296841 0.296841 0.296841
5114.601563 0.000000 2405.225586 0.000000 0.530064 0.000000 0.847958 0.352182 0.352182 0.352182
4953.270996 0.000000 2440.554443 0.000000 0.833509 0.000000 0.552505 0.425323 0.425323 0.425323
4947.992188 0.000000 2451.580078 0.000000 0.923927 0.000000 -0.382568 0.551748 0.551748 0.551748
4969.500000 0.000000 2446.004395 0.000000 0.584102 0.000000 -0.811680 0.627199 0.627199 0.627199
4962.506348 0.000000 2445.846191 0.000000 0.894181 0.000000 0.447706 0.437883 0.437883 0.437883
4644.393066 0.000000 2590.104980 0.000000 0.933489 0.000000 0.358605 0.451103 0.451103 0.451103
4689.527344 0.000000 2573.973145 0.000000 0.780196 0.000000 -0.625535 0.586723 0.586723 0.586723
4703.681641 0.000000 2591.214844 0.000000 0.028059 0.000000 0.999606 0.288167 0.288167 0.288167
4657.371582 0.000000 2621.785156 0.000000 0.999154 0.000000 0.041119 0.494332 0.494332 0.494332
4676.589844 0.000000 2600.740723 0.000000 0.412164 0.000000 -0.911110 0.653634 0.653634 0.653634
4708.919434 0.000000 2607.331055 0.000000 0.920211 0.000000 -0.391423 0.551910 0.551910 0.551910
4680.109863 0.000000 2597.502930 0.000000 0.937149 0.000000 0.348929 0.453461 0.453461 0.453461
4704.662109 0.000000 2607.002197 0.000000 0.356846 0.000000 -0.934163 0.657154 0.657154 0.657154
4737.248535 0.000000 2559.793945 0.000000 0.990787 0.000000 0.135429 0.482364 0.482364 0.482364
4752.450684 0.000000 2581.478760 0.000000 0.012332 0.000000 0.999924 0.297290 0.297290 0.297290
4735.117188 0.000000 2563.139404 0.000000 0.344029 0.000000 0.938959 0.338627 0.338627 0.338627
4681.204102 0.000000 2652.371826 0.000000 0.570561 0.000000 0.821255 0.375626 0.375626 0.375626
4681.445313 0.000000 2646.226074 0.000000 0.982253 0.000000 0.187562 0.474940 0.474940 0.474940
4692.912109 0.000000 2633.941650 0.000000 0.666078 0.000000 0.745882 0.387767 0.387767 0.387767
4690.801758 0.000000 2648.964355 0.000000 0.671503 0.000000 -0.741002 0.608551 0.608551 0.608551
4683.500488 0.000000 2646.010254 0.000000 0.755458 0.000000 -0.655197 0.598814 0.598814 0.598814
5256.600586 0.000000 2256.576660 0.000000 0.584813 0.000000 0.811168 0.369848 0.369848 0.369848
5249.472656 0.000000 2254.051270 0.000000 0.448294 0.000000 -0.893886 0.641917 0.641917 0.641917
5252.019531 0.000000 2258.439941 0.000000 0.742126 0.000000 0.670260 0.401522 0.401522 0.401522
5255.704590 0.000000 2266.415283 0.000000 0.503109 0.000000 -0.864223 0.637826 0.637826 0.637826
5253.352539 0.000000 2260.573730 0.000000 0.584469 0.000000 0.811416 0.372153 0.372153 0.372153
5256.599609 0.000000 2261.689941 0.000000 0.999276 0.000000 0.038057 0.494830 0.494830 0.494830
5212.596191 0.000000 2300.968506 0.000000 0.329151 0.000000 0.944277 0.338387 0.338387 0.338387
5210.750977 0.000000 2297.050293 0.000000 0.776821 0.000000 0.629722 0.411397 0.411397 0.411397
5348.049805 0.000000 2231.947266 0.000000 0.707073 0.000000 -0.707141 0.604124 0.604124 0.604124
5351.130859 0.000000 2239.038818 0.000000 0.409213 0.000000 -0.912439 0.647469 0.647469 0.647469
5351.806152 0.000000 2234.690186 0.000000 0.939006 0.000000 -0.343901 0.547329 0.547329 0.547329
5343.229492 0.000000 2234.257324 0.000000 0.812511 0.000000 -0.582946 0.584057 0.584057 0.584057
5134.775391 0.000000 2332.427979 0.000000 0.862663 0.000000 0.505780 0.425465 0.425465 0.425465
5183.634766 0.000000 2335.277344 0.000000 0.394815 0.000000 -0.918760 0.657339 0.657339 0.657339
5128.643066 0.000000 2344.256592 0.000000 0.482173 0.000000 0.876076 0.357131 0.357131 0.357131
5140.373047 0.000000 2336.874023 0.000000 0.940253 0.000000 -0.340476 0.546143 0.546143 0.546143
5141.618652 0.000000 2339.403320 0.000000 0.627837 0.000000 -0.778345 0.623820 0.623820 0.623820
5134.873047 0.000000 2336.537598 0.000000 0.999957 0.000000 -0.009253 0.501280 0.501280 0.501280
5178.823242 0.000000 2339.787842 0.000000 0.573779 0.000000 0.819010 0.370382 0.370382 0.370382
5185.126953 0.000000 2335.776367 0.000000 0.956579 0.000000 -0.291472 0.540685 0.540685 0.540685
5200.059082 0.000000 2309.573242 0.000000 0.984256 0.000000 -0.176749 0.525063 0.525063 0.525063
5209.169922 0.000000 2309.854492 0.000000 0.938969 0.000000 0.344002 0.450991 0.450991 0.450991
5213.717773 0.000000 2308.955078 0.000000 0.937870 0.000000 0.346987 0.450724 0.450724 0.450724
5207.053223 0.000000 2309.250732 0.000000 0.583985 0.000000 0.811765 0.368526 0.368526 0.368526
5211.153320 0.000000 2306.636475 0.000000 0.343805 0.000000 0.939041 0.314537 0.314537 0.314537
"}
object={
	name="rock_red_generator_1_3"
	clamp_to_water_level=no
	render_under_water=no
	generated_content=yes
	layer="rock_layer"
	pdxmesh="rock_S_red_mesh"
	count=193
	transform="5036.045898 0.000000 2296.966553 0.000000 0.779832 0.000000 0.625989 0.410839 0.410839 0.410839
4748.108398 0.000000 2423.900391 0.000000 0.660502 0.000000 0.750824 0.386138 0.386138 0.386138
4748.413086 0.000000 2427.484375 0.000000 0.781832 0.000000 0.623489 0.408235 0.408235 0.408235
4772.066406 0.000000 2418.400879 0.000000 0.624958 0.000000 -0.780659 0.616059 0.616059 0.616059
4771.719238 0.000000 2415.784668 0.000000 0.981272 0.000000 -0.192629 0.525890 0.525890 0.525890
4777.206055 0.000000 2413.967285 0.000000 0.576386 0.000000 0.817178 0.369380 0.369380 0.369380
4775.363770 0.000000 2414.889648 0.000000 0.836691 0.000000 -0.547675 0.583634 0.583634 0.583634
4692.912109 0.000000 2441.988525 0.000000 0.806479 0.000000 -0.591263 0.584023 0.584023 0.584023
4693.490723 0.000000 2445.786865 0.000000 0.992983 0.000000 0.118257 0.519365 0.519365 0.519365
4701.125977 0.000000 2441.351563 0.000000 0.705909 0.000000 -0.708303 0.603360 0.603360 0.603360
4699.777832 0.000000 2438.331543 0.000000 0.996602 0.000000 -0.082372 0.511426 0.511426 0.511426
4692.692383 0.000000 2444.240967 0.000000 0.533549 0.000000 0.845769 0.370411 0.370411 0.370411
4705.043945 0.000000 2492.754639 0.000000 0.969410 0.000000 0.245449 0.466754 0.466754 0.466754
4711.868652 0.000000 2490.627686 0.000000 0.502568 0.000000 0.864538 0.361831 0.361831 0.361831
4712.704590 0.000000 2492.960938 0.000000 0.925002 0.000000 0.379963 0.445996 0.445996 0.445996
4754.825684 0.000000 2449.526123 0.000000 0.893041 0.000000 0.449975 0.439874 0.439874 0.439874
4756.073242 0.000000 2456.927490 0.000000 0.950890 0.000000 -0.309529 0.541326 0.541326 0.541326
4755.336914 0.000000 2454.151123 0.000000 0.589021 0.000000 0.808118 0.371973 0.371973 0.371973
4772.639160 0.000000 2492.921631 0.000000 0.349175 0.000000 -0.937058 0.660950 0.660950 0.660950
4770.793945 0.000000 2489.003418 0.000000 0.714055 0.000000 -0.700089 0.604745 0.604745 0.604745
4775.751465 0.000000 2490.360596 0.000000 0.075693 0.000000 -0.997131 0.698191 0.698191 0.698191
4771.763184 0.000000 2491.076172 0.000000 0.332723 0.000000 -0.943025 0.673109 0.673109 0.673109
4707.501953 0.000000 2496.028564 0.000000 0.999226 0.000000 -0.039345 0.505129 0.505129 0.505129
4661.129883 0.000000 2537.328125 0.000000 0.483746 0.000000 -0.875208 0.642895 0.642895 0.642895
4681.445313 0.000000 2550.249512 0.000000 0.983653 0.000000 -0.180073 0.523596 0.523596 0.523596
4758.877441 0.000000 2502.351318 0.000000 0.935503 0.000000 -0.353319 0.547692 0.547692 0.547692
4728.682129 0.000000 2504.217529 0.000000 0.753406 0.000000 0.657556 0.406666 0.406666 0.406666
4764.007813 0.000000 2496.584229 0.000000 0.065486 0.000000 -0.997854 0.698796 0.698796 0.698796
4732.070313 0.000000 2546.369629 0.000000 0.717411 0.000000 0.696650 0.400138 0.400138 0.400138
4740.325195 0.000000 2544.680420 0.000000 0.936909 0.000000 -0.349574 0.548322 0.548322 0.548322
4735.583008 0.000000 2547.521973 0.000000 0.483441 0.000000 -0.875377 0.640812 0.640812 0.640812
4734.154785 0.000000 2544.768066 0.000000 0.126252 0.000000 -0.991998 0.694699 0.694699 0.694699
4852.631348 0.000000 2364.952881 0.000000 0.297038 0.000000 -0.954866 0.665403 0.665403 0.665403
4932.623535 0.000000 2332.960693 0.000000 0.870346 0.000000 0.492440 0.432642 0.432642 0.432642
4921.180664 0.000000 2332.449951 0.000000 0.982675 0.000000 0.185335 0.476079 0.476079 0.476079
4900.142090 0.000000 2361.763428 0.000000 0.954421 0.000000 -0.298465 0.538893 0.538893 0.538893
4911.849121 0.000000 2362.658936 0.000000 0.674215 0.000000 -0.738535 0.620521 0.620521 0.620521
4919.749512 0.000000 2352.898193 0.000000 0.203015 0.000000 0.979176 0.325689 0.325689 0.325689
4954.806152 0.000000 2353.549561 0.000000 0.999491 0.000000 -0.031896 0.504357 0.504357 0.504357
4952.431152 0.000000 2357.533447 0.000000 0.991122 0.000000 0.132958 0.482255 0.482255 0.482255
4921.659180 0.000000 2355.297119 0.000000 0.997048 0.000000 -0.076776 0.510514 0.510514 0.510514
4920.808594 0.000000 2359.972900 0.000000 0.741934 0.000000 0.670473 0.391026 0.391026 0.391026
4817.783203 0.000000 2376.110352 0.000000 0.980367 0.000000 0.197182 0.474084 0.474084 0.474084
4837.287598 0.000000 2380.209473 0.000000 0.972983 0.000000 0.230876 0.469580 0.469580 0.469580
4822.488281 0.000000 2374.064209 0.000000 0.084271 0.000000 0.996443 0.301465 0.301465 0.301465
4846.545898 0.000000 2394.811523 0.000000 0.937549 0.000000 0.347853 0.453789 0.453789 0.453789
4844.373535 0.000000 2398.151855 0.000000 0.703967 0.000000 0.710233 0.396281 0.396281 0.396281
4838.869629 0.000000 2406.374756 0.000000 0.232291 0.000000 0.972646 0.327513 0.327513 0.327513
4836.245117 0.000000 2402.115967 0.000000 0.623350 0.000000 0.781943 0.383674 0.383674 0.383674
4903.767578 0.000000 2369.327881 0.000000 0.711397 0.000000 -0.702790 0.601560 0.601560 0.601560
4897.232910 0.000000 2367.840820 0.000000 0.971726 0.000000 0.236110 0.469234 0.469234 0.469234
4896.361328 0.000000 2379.414307 0.000000 0.940560 0.000000 -0.339627 0.545418 0.545418 0.545418
4896.667969 0.000000 2373.460693 0.000000 0.444421 0.000000 -0.895818 0.657995 0.657995 0.657995
4970.774414 0.000000 2329.042480 0.000000 0.021986 0.000000 -0.999758 0.716534 0.716534 0.716534
4993.250000 0.000000 2308.588135 0.000000 0.398721 0.000000 0.917072 0.348162 0.348162 0.348162
4971.743652 0.000000 2331.115234 0.000000 0.804458 0.000000 -0.594009 0.590986 0.590986 0.590986
5011.415039 0.000000 2308.354736 0.000000 0.139193 0.000000 0.990265 0.299558 0.299558 0.299558
5004.007813 0.000000 2313.181152 0.000000 0.895177 0.000000 0.445711 0.438528 0.438528 0.438528
5004.784668 0.000000 2308.355957 0.000000 0.295251 0.000000 0.955420 0.316265 0.316265 0.316265
5008.006836 0.000000 2307.471680 0.000000 0.299391 0.000000 0.954131 0.324166 0.324166 0.324166
5001.936035 0.000000 2307.283936 0.000000 0.999369 0.000000 -0.035509 0.504832 0.504832 0.504832
5007.072754 0.000000 2309.250732 0.000000 0.991862 0.000000 -0.127317 0.518804 0.518804 0.518804
5004.439453 0.000000 2310.143799 0.000000 0.536434 0.000000 -0.843943 0.649477 0.649477 0.649477
5003.053223 0.000000 2308.602295 0.000000 0.953766 0.000000 -0.300550 0.543593 0.543593 0.543593
5004.130371 0.000000 2311.636719 0.000000 0.460056 0.000000 0.887890 0.337407 0.337407 0.337407
4998.411133 0.000000 2359.608887 0.000000 0.980714 0.000000 0.195448 0.471860 0.471860 0.471860
4996.538086 0.000000 2363.040771 0.000000 0.901165 0.000000 0.433476 0.437094 0.437094 0.437094
4998.464355 0.000000 2361.882813 0.000000 0.755460 0.000000 0.655194 0.397976 0.397976 0.397976
5028.808594 0.000000 2346.598877 0.000000 0.869413 0.000000 0.494085 0.430718 0.430718 0.430718
5032.875977 0.000000 2349.455078 0.000000 0.635803 0.000000 0.771851 0.385091 0.385091 0.385091
5021.183105 0.000000 2366.378174 0.000000 0.397646 0.000000 0.917539 0.348588 0.348588 0.348588
5026.888672 0.000000 2348.857178 0.000000 0.995938 0.000000 -0.090038 0.512357 0.512357 0.512357
5063.251953 0.000000 2322.830322 0.000000 0.483851 0.000000 0.875150 0.361112 0.361112 0.361112
5052.611816 0.000000 2364.952881 0.000000 0.991168 0.000000 0.132612 0.482202 0.482202 0.482202
5039.737793 0.000000 2352.898193 0.000000 0.773112 0.000000 -0.634269 0.587823 0.587823 0.587823
5041.410156 0.000000 2358.296387 0.000000 0.541411 0.000000 0.840758 0.368855 0.368855 0.368855
5055.724121 0.000000 2362.391846 0.000000 0.536226 0.000000 -0.844074 0.631452 0.631452 0.631452
5041.647461 0.000000 2355.297119 0.000000 0.717967 0.000000 0.696077 0.395051 0.395051 0.395051
5089.488281 0.000000 2350.027832 0.000000 0.673010 0.000000 0.739634 0.377995 0.377995 0.377995
5090.480957 0.000000 2353.622070 0.000000 0.734658 0.000000 -0.678438 0.606478 0.606478 0.606478
5088.280273 0.000000 2351.908447 0.000000 0.787962 0.000000 0.615724 0.402794 0.402794 0.402794
4972.619629 0.000000 2396.945068 0.000000 0.739642 0.000000 -0.673001 0.595473 0.595473 0.595473
4998.960449 0.000000 2399.343262 0.000000 0.874997 0.000000 -0.484128 0.566112 0.566112 0.566112
4994.802246 0.000000 2385.541748 0.000000 0.999706 0.000000 0.024236 0.496690 0.496690 0.496690
4974.527344 0.000000 2390.753174 0.000000 0.147059 0.000000 0.989128 0.315239 0.315239 0.315239
4988.892090 0.000000 2383.385742 0.000000 0.229623 0.000000 -0.973280 0.673509 0.673509 0.673509
4991.348633 0.000000 2386.015869 0.000000 0.075961 0.000000 0.997111 0.294381 0.294381 0.294381
4992.830566 0.000000 2383.938721 0.000000 0.711455 0.000000 -0.702731 0.605051 0.605051 0.605051
4999.741699 0.000000 2384.890381 0.000000 0.144399 0.000000 0.989519 0.314534 0.314534 0.314534
5024.312988 0.000000 2379.216797 0.000000 0.982226 0.000000 -0.187703 0.524607 0.524607 0.524607
5017.336426 0.000000 2397.839844 0.000000 0.491744 0.000000 -0.870740 0.639820 0.639820 0.639820
5008.654785 0.000000 2376.248779 0.000000 0.348459 0.000000 0.937324 0.341072 0.341072 0.341072
5023.803223 0.000000 2391.129639 0.000000 0.957722 0.000000 0.287696 0.460367 0.460367 0.460367
5033.246094 0.000000 2372.572510 0.000000 0.991918 0.000000 -0.126882 0.517088 0.517088 0.517088
5013.459473 0.000000 2381.802490 0.000000 0.991935 0.000000 -0.126748 0.516784 0.516784 0.516784
5002.502441 0.000000 2381.861816 0.000000 0.868169 0.000000 0.496269 0.432196 0.432196 0.432196
5021.094727 0.000000 2377.367188 0.000000 0.087579 0.000000 0.996158 0.305241 0.305241 0.305241
5036.130371 0.000000 2373.236084 0.000000 0.624338 0.000000 0.781154 0.380481 0.380481 0.380481
5025.344238 0.000000 2388.794434 0.000000 0.182394 0.000000 0.983226 0.314002 0.314002 0.314002
5010.427734 0.000000 2398.430176 0.000000 0.342784 0.000000 0.939414 0.328698 0.328698 0.328698
4976.627930 0.000000 2416.537598 0.000000 0.891290 0.000000 -0.453433 0.560743 0.560743 0.560743
4998.854004 0.000000 2406.374756 0.000000 0.711751 0.000000 0.702432 0.396950 0.396950 0.396950
4993.250000 0.000000 2404.564697 0.000000 0.989699 0.000000 -0.143161 0.518793 0.518793 0.518793
5011.415039 0.000000 2404.331299 0.000000 0.942869 0.000000 0.333163 0.456584 0.456584 0.456584
5000.796387 0.000000 2400.572998 0.000000 0.999876 0.000000 0.015767 0.497744 0.497744 0.497744
5000.078613 0.000000 2405.549805 0.000000 0.086778 0.000000 -0.996228 0.704126 0.704126 0.704126
5012.431641 0.000000 2399.899170 0.000000 0.089478 0.000000 0.995989 0.298096 0.298096 0.298096
5001.936035 0.000000 2403.260498 0.000000 0.447615 0.000000 0.894226 0.341408 0.341408 0.341408
4999.849121 0.000000 2402.612793 0.000000 0.290980 0.000000 0.956729 0.323581 0.323581 0.323581
5002.315430 0.000000 2401.503418 0.000000 0.874810 0.000000 -0.484467 0.575758 0.575758 0.575758
5007.802246 0.000000 2401.683105 0.000000 0.787029 0.000000 0.616916 0.402241 0.402241 0.402241
5047.092285 0.000000 2368.021973 0.000000 0.996478 0.000000 -0.083852 0.511402 0.511402 0.511402
5113.255371 0.000000 2408.562256 0.000000 0.441067 0.000000 0.897474 0.356491 0.356491 0.356491
5110.155762 0.000000 2404.022217 0.000000 0.936081 0.000000 0.351785 0.447768 0.447768 0.447768
5116.122559 0.000000 2405.228271 0.000000 0.339055 0.000000 0.940767 0.321108 0.321108 0.321108
5113.600586 0.000000 2402.049316 0.000000 0.775351 0.000000 -0.631531 0.593855 0.593855 0.593855
4957.275879 0.000000 2444.193848 0.000000 0.238842 0.000000 -0.971058 0.675268 0.675268 0.675268
4944.638672 0.000000 2447.041260 0.000000 0.899976 0.000000 -0.435939 0.559123 0.559123 0.559123
4952.834473 0.000000 2447.923096 0.000000 0.542915 0.000000 -0.839787 0.633897 0.633897 0.633897
4959.745605 0.000000 2448.874756 0.000000 0.670208 0.000000 0.742173 0.392265 0.392265 0.392265
4959.548340 0.000000 2443.409424 0.000000 0.943475 0.000000 0.331443 0.456227 0.456227 0.456227
4967.048340 0.000000 2446.996826 0.000000 0.777242 0.000000 -0.629202 0.592084 0.592084 0.592084
4646.565430 0.000000 2586.764648 0.000000 0.984008 0.000000 0.178123 0.476752 0.476752 0.476752
4661.218262 0.000000 2590.323486 0.000000 0.911973 0.000000 -0.410250 0.555195 0.555195 0.555195
4687.965332 0.000000 2581.255127 0.000000 0.250603 0.000000 -0.968090 0.673340 0.673340 0.673340
4716.077148 0.000000 2584.896240 0.000000 0.679945 0.000000 0.733263 0.394171 0.394171 0.394171
4708.919434 0.000000 2575.338867 0.000000 0.742019 0.000000 -0.670379 0.594648 0.594648 0.594648
4699.713867 0.000000 2572.795410 0.000000 0.346019 0.000000 0.938228 0.342251 0.342251 0.342251
4712.907227 0.000000 2573.400391 0.000000 0.990410 0.000000 -0.138159 0.518028 0.518028 0.518028
4701.214355 0.000000 2590.323486 0.000000 0.534149 0.000000 0.845391 0.363951 0.363951 0.363951
4696.380859 0.000000 2571.367432 0.000000 0.536378 0.000000 0.843978 0.366064 0.366064 0.366064
4673.298340 0.000000 2600.515381 0.000000 0.098714 0.000000 0.995116 0.298258 0.298258 0.298258
4651.450195 0.000000 2596.284424 0.000000 0.743698 0.000000 -0.668515 0.594142 0.594142 0.594142
4640.831543 0.000000 2592.526123 0.000000 0.628923 0.000000 -0.777467 0.614065 0.614065 0.614065
4649.531250 0.000000 2605.965332 0.000000 0.498529 0.000000 0.866873 0.364094 0.364094 0.364094
4657.256348 0.000000 2591.786133 0.000000 0.150706 0.000000 0.988579 0.307213 0.307213 0.307213
4668.923340 0.000000 2607.331055 0.000000 0.133063 0.000000 0.991108 0.309098 0.309098 0.309098
4648.528809 0.000000 2603.158447 0.000000 0.997293 0.000000 0.073532 0.490243 0.490243 0.490243
4676.165527 0.000000 2597.181396 0.000000 0.585346 0.000000 -0.810783 0.627229 0.627229 0.627229
4651.674316 0.000000 2599.239746 0.000000 0.033511 0.000000 -0.999438 0.703792 0.703792 0.703792
4671.574707 0.000000 2603.041260 0.000000 0.121453 0.000000 -0.992597 0.693904 0.693904 0.693904
4654.810059 0.000000 2622.580322 0.000000 0.996209 0.000000 -0.086995 0.511743 0.511743 0.511743
4654.822266 0.000000 2620.357666 0.000000 0.186261 0.000000 -0.982500 0.688924 0.688924 0.688924
4713.294434 0.000000 2600.515381 0.000000 0.347290 0.000000 -0.937758 0.660002 0.660002 0.660002
4698.883301 0.000000 2612.863037 0.000000 0.190083 0.000000 -0.981768 0.691148 0.691148 0.691148
4698.870117 0.000000 2595.725342 0.000000 0.018352 0.000000 0.999832 0.294585 0.294585 0.294585
4696.687500 0.000000 2597.406006 0.000000 0.450204 0.000000 -0.892926 0.651563 0.651563 0.651563
4699.505859 0.000000 2614.971191 0.000000 0.070210 0.000000 -0.997532 0.707536 0.707536 0.707536
4731.442383 0.000000 2564.292236 0.000000 0.814817 0.000000 -0.579718 0.579970 0.579970 0.579970
4751.864746 0.000000 2586.604248 0.000000 0.996317 0.000000 -0.085744 0.511445 0.511445 0.511445
4748.413086 0.000000 2587.445313 0.000000 0.913404 0.000000 -0.407054 0.554947 0.554947 0.554947
4678.991699 0.000000 2655.280762 0.000000 0.026689 0.000000 0.999644 0.302628 0.302628 0.302628
4689.527344 0.000000 2637.957520 0.000000 0.712553 0.000000 0.701618 0.397296 0.397296 0.397296
4691.380859 0.000000 2645.832031 0.000000 0.241241 0.000000 0.970465 0.324726 0.324726 0.324726
4682.081543 0.000000 2648.619629 0.000000 0.026139 0.000000 0.999658 0.289831 0.289831 0.289831
5263.232422 0.000000 2258.845947 0.000000 0.934509 0.000000 -0.355941 0.546972 0.546972 0.546972
5254.500000 0.000000 2262.784424 0.000000 0.983534 0.000000 0.180722 0.475547 0.475547 0.475547
5259.659180 0.000000 2252.873535 0.000000 0.020123 0.000000 0.999798 0.295594 0.295594 0.295594
5258.828613 0.000000 2260.948975 0.000000 0.285771 0.000000 0.958298 0.327945 0.327945 0.327945
5255.532227 0.000000 2259.592285 0.000000 0.742628 0.000000 0.669704 0.400706 0.400706 0.400706
5253.200684 0.000000 2265.836182 0.000000 0.344394 0.000000 -0.938825 0.666496 0.666496 0.666496
5207.959961 0.000000 2302.039795 0.000000 0.236244 0.000000 0.971694 0.323382 0.323382 0.323382
5340.099121 0.000000 2233.794678 0.000000 0.091896 0.000000 -0.995769 0.700097 0.700097 0.700097
5343.224609 0.000000 2226.853760 0.000000 0.575802 0.000000 -0.817589 0.623788 0.623788 0.623788
5332.011719 0.000000 2226.447754 0.000000 0.667015 0.000000 0.745044 0.385416 0.385416 0.385416
5338.820801 0.000000 2228.956787 0.000000 0.955648 0.000000 0.294510 0.459027 0.459027 0.459027
5348.354492 0.000000 2235.531250 0.000000 0.848999 0.000000 0.528394 0.423280 0.423280 0.423280
5345.969238 0.000000 2234.224365 0.000000 0.902004 0.000000 0.431727 0.438147 0.438147 0.438147
5334.096191 0.000000 2224.846191 0.000000 0.991386 0.000000 -0.130975 0.517741 0.517741 0.517741
5341.418457 0.000000 2231.783691 0.000000 0.813028 0.000000 0.582225 0.414977 0.414977 0.414977
5345.875000 0.000000 2231.694580 0.000000 0.030414 0.000000 -0.999537 0.710356 0.710356 0.710356
5135.716309 0.000000 2330.399658 0.000000 0.133497 0.000000 -0.991049 0.690126 0.690126 0.690126
5188.065430 0.000000 2327.923828 0.000000 0.940380 0.000000 -0.340126 0.544794 0.544794 0.544794
5196.114746 0.000000 2309.251709 0.000000 0.944171 0.000000 0.329455 0.454907 0.454907 0.454907
5143.744141 0.000000 2337.335693 0.000000 0.243840 0.000000 -0.969815 0.669960 0.669960 0.669960
5148.374023 0.000000 2363.500000 0.000000 0.201724 0.000000 0.979442 0.321081 0.321081 0.321081
5150.596680 0.000000 2360.352051 0.000000 0.536692 0.000000 -0.843778 0.637397 0.637397 0.637397
5177.205566 0.000000 2335.848633 0.000000 0.967511 0.000000 -0.252830 0.533055 0.533055 0.533055
5175.074219 0.000000 2339.194092 0.000000 0.999574 0.000000 0.029188 0.496086 0.496086 0.496086
5223.736328 0.000000 2305.343506 0.000000 0.742838 0.000000 -0.669472 0.597420 0.597420 0.597420
5204.765137 0.000000 2308.355957 0.000000 0.284958 0.000000 0.958540 0.319191 0.319191 0.319191
5212.412109 0.000000 2303.922607 0.000000 0.179367 0.000000 0.983782 0.316366 0.316366 0.316366
5215.070313 0.000000 2307.201904 0.000000 0.204546 0.000000 0.978857 0.307489 0.307489 0.307489
5207.987305 0.000000 2307.471680 0.000000 0.589823 0.000000 -0.807532 0.636575 0.636575 0.636575
5205.977539 0.000000 2310.996582 0.000000 0.819340 0.000000 0.573309 0.419215 0.419215 0.419215
5210.006348 0.000000 2305.454346 0.000000 0.586822 0.000000 -0.809716 0.633580 0.633580 0.633580
5202.738281 0.000000 2310.493896 0.000000 0.999229 0.000000 -0.039271 0.505256 0.505256 0.505256
5212.824219 0.000000 2306.299316 0.000000 0.578138 0.000000 -0.815939 0.641526 0.641526 0.641526
5214.865234 0.000000 2304.545410 0.000000 0.789748 0.000000 0.613432 0.410145 0.410145 0.410145
5205.834961 0.000000 2306.188965 0.000000 0.966856 0.000000 -0.255321 0.536740 0.536740 0.536740
5206.316895 0.000000 2307.740723 0.000000 0.752203 0.000000 0.658931 0.395472 0.395472 0.395472
5120.784668 0.000000 2400.572998 0.000000 0.538247 0.000000 0.842787 0.365858 0.365858 0.365858
5119.837402 0.000000 2402.612793 0.000000 0.485879 0.000000 0.874026 0.344688 0.344688 0.344688
"}
object={
	name="rock_red_generator_1_4"
	clamp_to_water_level=no
	render_under_water=no
	generated_content=yes
	layer="rock_layer"
	pdxmesh="rock_M_red_mesh"
	count=107
	transform="4753.344727 0.000000 2424.178223 0.000000 0.785461 0.000000 0.618911 0.407032 0.407032 0.407032
4780.321289 0.000000 2416.711670 0.000000 0.126802 0.000000 -0.991928 0.693903 0.693903 0.693903
4688.524902 0.000000 2443.197510 0.000000 0.845523 0.000000 0.533938 0.424910 0.424910 0.424910
4695.524902 0.000000 2445.015137 0.000000 0.592831 0.000000 0.805327 0.362097 0.362097 0.362097
4715.123047 0.000000 2493.323975 0.000000 0.875160 0.000000 0.483833 0.432293 0.432293 0.432293
4758.007324 0.000000 2452.756592 0.000000 0.854289 0.000000 0.519799 0.419486 0.419486 0.419486
4758.434570 0.000000 2455.585449 0.000000 0.949093 0.000000 -0.314996 0.547601 0.547601 0.547601
4759.765137 0.000000 2448.874756 0.000000 0.972679 0.000000 0.232152 0.469467 0.469467 0.469467
4764.381348 0.000000 2494.128418 0.000000 0.756914 0.000000 0.653514 0.405939 0.405939 0.405939
4684.956055 0.000000 2544.505127 0.000000 0.390987 0.000000 -0.920396 0.650897 0.650897 0.650897
4681.682617 0.000000 2547.250244 0.000000 0.989281 0.000000 -0.146021 0.520012 0.520012 0.520012
4731.442383 0.000000 2500.307861 0.000000 0.554881 0.000000 0.831930 0.373913 0.373913 0.373913
4725.940430 0.000000 2508.625244 0.000000 0.805931 0.000000 -0.592009 0.582880 0.582880 0.582880
4760.819824 0.000000 2496.549561 0.000000 0.259662 0.000000 0.965699 0.332791 0.332791 0.332791
4759.567871 0.000000 2507.393799 0.000000 0.998341 0.000000 0.057571 0.492522 0.492522 0.492522
4748.915527 0.000000 2543.346680 0.000000 0.994755 0.000000 -0.102284 0.513302 0.513302 0.513302
4854.790527 0.000000 2366.642822 0.000000 0.950494 0.000000 -0.310743 0.542361 0.542361 0.542361
4927.987305 0.000000 2334.031982 0.000000 0.957925 0.000000 0.287019 0.460100 0.460100 0.460100
4908.092773 0.000000 2359.916016 0.000000 0.545985 0.000000 0.837795 0.368578 0.368578 0.368578
4910.329102 0.000000 2364.824707 0.000000 0.104982 0.000000 0.994474 0.300585 0.300585 0.300585
4924.579590 0.000000 2359.958496 0.000000 0.711166 0.000000 0.703024 0.393531 0.393531 0.393531
4953.305176 0.000000 2355.412842 0.000000 0.854176 0.000000 0.519983 0.420000 0.420000 0.420000
4925.075195 0.000000 2361.720947 0.000000 0.790615 0.000000 0.612313 0.405566 0.405566 0.405566
4826.189941 0.000000 2371.263916 0.000000 0.423466 0.000000 -0.905912 0.651117 0.651117 0.651117
4874.813965 0.000000 2385.541748 0.000000 0.994762 0.000000 -0.102223 0.513140 0.513140 0.513140
4857.236816 0.000000 2367.840820 0.000000 0.731698 0.000000 -0.681629 0.600547 0.600547 0.600547
4845.928711 0.000000 2380.656494 0.000000 0.337064 0.000000 -0.941482 0.662353 0.662353 0.662353
4879.753418 0.000000 2384.890381 0.000000 0.010458 0.000000 -0.999945 0.701785 0.701785 0.701785
4885.924805 0.000000 2380.656494 0.000000 0.930424 0.000000 -0.366486 0.551991 0.551991 0.551991
4901.642090 0.000000 2371.395508 0.000000 0.146443 0.000000 0.989219 0.305205 0.305205 0.305205
4899.758301 0.000000 2374.347168 0.000000 0.076544 0.000000 -0.997066 0.700316 0.700316 0.700316
4898.682129 0.000000 2369.229980 0.000000 0.663436 0.000000 -0.748233 0.624946 0.624946 0.624946
4996.134277 0.000000 2309.251709 0.000000 0.167799 0.000000 -0.985821 0.691136 0.691136 0.691136
4969.768066 0.000000 2331.724365 0.000000 0.007648 0.000000 -0.999971 0.710734 0.710734 0.710734
5007.096191 0.000000 2304.037598 0.000000 0.993168 0.000000 0.116695 0.484232 0.484232 0.484232
5000.872070 0.000000 2312.654785 0.000000 0.991985 0.000000 0.126354 0.483110 0.483110 0.483110
5002.757813 0.000000 2310.493896 0.000000 0.714522 0.000000 0.699613 0.386640 0.386640 0.386640
5005.854492 0.000000 2306.188965 0.000000 0.892792 0.000000 -0.450469 0.564980 0.564980 0.564980
5037.979980 0.000000 2356.780029 0.000000 0.092311 0.000000 0.995730 0.305865 0.305865 0.305865
4999.717773 0.000000 2361.376221 0.000000 0.618218 0.000000 -0.786007 0.629140 0.629140 0.629140
5081.643555 0.000000 2323.304932 0.000000 0.088071 0.000000 0.996114 0.304566 0.304566 0.304566
5091.687988 0.000000 2351.800293 0.000000 0.954156 0.000000 -0.299309 0.541738 0.541738 0.541738
5087.036621 0.000000 2351.020264 0.000000 0.569798 0.000000 -0.821785 0.644240 0.644240 0.644240
5084.625488 0.000000 2350.432129 0.000000 0.965113 0.000000 -0.261834 0.536575 0.536575 0.536575
4997.271973 0.000000 2380.209473 0.000000 0.875757 0.000000 0.482752 0.433339 0.433339 0.433339
4985.348145 0.000000 2388.794434 0.000000 0.532561 0.000000 -0.846392 0.635042 0.635042 0.635042
5012.615723 0.000000 2396.945068 0.000000 0.953226 0.000000 -0.302260 0.542776 0.542776 0.542776
5033.263184 0.000000 2376.570068 0.000000 0.299023 0.000000 0.954246 0.337083 0.337083 0.337083
5028.081055 0.000000 2391.908203 0.000000 0.945178 0.000000 0.326556 0.456399 0.456399 0.456399
5023.755859 0.000000 2369.327881 0.000000 0.994562 0.000000 -0.104144 0.513336 0.513336 0.513336
5001.172852 0.000000 2396.434326 0.000000 0.992308 0.000000 0.123794 0.483919 0.483919 0.483919
5004.007813 0.000000 2377.165527 0.000000 0.113148 0.000000 -0.993578 0.690657 0.690657 0.690657
5015.089844 0.000000 2371.186279 0.000000 0.999771 0.000000 0.021414 0.497198 0.497198 0.497198
5007.979492 0.000000 2398.016357 0.000000 0.438462 0.000000 -0.898750 0.661449 0.661449 0.661449
5023.260742 0.000000 2394.218262 0.000000 0.198221 0.000000 0.980157 0.317190 0.317190 0.317190
4964.928711 0.000000 2416.536377 0.000000 0.999830 0.000000 0.018465 0.497598 0.497598 0.497598
4996.229492 0.000000 2402.115967 0.000000 0.936343 0.000000 -0.351086 0.548451 0.548451 0.548451
4999.003418 0.000000 2402.817383 0.000000 0.591760 0.000000 0.806114 0.370328 0.370328 0.370328
5007.096191 0.000000 2400.014160 0.000000 0.223028 0.000000 -0.974812 0.697907 0.697907 0.697907
5008.006836 0.000000 2403.448242 0.000000 0.033235 0.000000 0.999448 0.291565 0.291565 0.291565
5005.775879 0.000000 2400.775879 0.000000 0.077349 0.000000 -0.997004 0.723696 0.723696 0.723696
5117.919434 0.000000 2404.462158 0.000000 0.523573 0.000000 -0.851981 0.648933 0.648933 0.648933
5114.994629 0.000000 2403.632813 0.000000 0.673444 0.000000 0.739238 0.380159 0.380159 0.380159
5111.648438 0.000000 2404.958496 0.000000 0.353264 0.000000 0.935524 0.324226 0.324226 0.324226
4955.579102 0.000000 2446.518555 0.000000 0.971516 0.000000 0.236973 0.468343 0.468343 0.468343
4964.011719 0.000000 2441.149902 0.000000 0.991625 0.000000 0.129147 0.483413 0.483413 0.483413
4648.014648 0.000000 2589.969482 0.000000 0.730685 0.000000 -0.682715 0.598682 0.598682 0.598682
4705.043945 0.000000 2588.731201 0.000000 0.992194 0.000000 0.124701 0.483020 0.483020 0.483020
4652.650879 0.000000 2620.890381 0.000000 0.117466 0.000000 -0.993077 0.688274 0.688274 0.688274
4647.131348 0.000000 2591.967285 0.000000 0.887207 0.000000 -0.461371 0.562494 0.562494 0.562494
4652.916016 0.000000 2601.949463 0.000000 0.823181 0.000000 0.567779 0.421764 0.421764 0.421764
4670.643555 0.000000 2616.289551 0.000000 0.046017 0.000000 0.998941 0.293299 0.293299 0.293299
4703.787109 0.000000 2593.273193 0.000000 0.999329 0.000000 -0.036629 0.504912 0.504912 0.504912
4703.287109 0.000000 2610.760010 0.000000 0.926688 0.000000 0.375832 0.447865 0.447865 0.447865
4708.839844 0.000000 2602.536377 0.000000 0.764811 0.000000 -0.644255 0.592454 0.592454 0.592454
4695.121094 0.000000 2595.131592 0.000000 0.143700 0.000000 0.989621 0.313730 0.313730 0.313730
4705.173828 0.000000 2591.713867 0.000000 0.166992 0.000000 -0.985958 0.693349 0.693349 0.693349
4744.340332 0.000000 2571.169922 0.000000 0.846647 0.000000 0.532155 0.426171 0.426171 0.426171
4750.635742 0.000000 2584.297363 0.000000 0.999993 0.000000 0.003801 0.499489 0.499489 0.499489
4652.466797 0.000000 2623.844482 0.000000 0.808170 0.000000 -0.588949 0.584114 0.584114 0.584114
4687.965332 0.000000 2645.239502 0.000000 0.327017 0.000000 -0.945018 0.664689 0.664689 0.664689
4684.592773 0.000000 2644.105957 0.000000 0.520971 0.000000 -0.853574 0.635846 0.635846 0.635846
5198.940918 0.000000 2303.366699 0.000000 0.127085 0.000000 -0.991892 0.684496 0.684496 0.684496
5264.289551 0.000000 2251.248047 0.000000 0.954448 0.000000 -0.298376 0.538805 0.538805 0.538805
5206.510742 0.000000 2298.834961 0.000000 0.650300 0.000000 -0.759677 0.612011 0.612011 0.612011
5344.981445 0.000000 2236.817139 0.000000 0.944589 0.000000 0.328256 0.455746 0.455746 0.455746
5333.428223 0.000000 2221.841553 0.000000 0.993444 0.000000 0.114317 0.485012 0.485012 0.485012
5337.533691 0.000000 2231.887207 0.000000 0.168483 0.000000 -0.985705 0.688592 0.688592 0.688592
5341.599121 0.000000 2229.307129 0.000000 0.785677 0.000000 0.618637 0.409912 0.409912 0.409912
5347.402832 0.000000 2237.967285 0.000000 0.376391 0.000000 -0.926461 0.657966 0.657966 0.657966
5350.577148 0.000000 2232.383301 0.000000 0.818625 0.000000 0.574329 0.417981 0.417981 0.417981
5198.834473 0.000000 2310.398193 0.000000 0.916625 0.000000 -0.399749 0.553593 0.553593 0.553593
5188.370117 0.000000 2331.507813 0.000000 0.482911 0.000000 -0.875669 0.640093 0.640093 0.640093
5131.403320 0.000000 2340.346924 0.000000 0.592143 0.000000 0.805833 0.377412 0.377412 0.377412
5148.069336 0.000000 2359.916016 0.000000 0.335233 0.000000 -0.942135 0.660156 0.660156 0.660156
5129.484375 0.000000 2350.027832 0.000000 0.936005 0.000000 -0.351988 0.546157 0.546157 0.546157
5132.419922 0.000000 2335.914795 0.000000 0.521059 0.000000 -0.853521 0.639662 0.639662 0.639662
5131.627441 0.000000 2343.302246 0.000000 0.881758 0.000000 0.471702 0.434145 0.434145 0.434145
5129.177734 0.000000 2341.846680 0.000000 0.999856 0.000000 0.016942 0.497652 0.497652 0.497652
5137.156250 0.000000 2338.144775 0.000000 0.047958 0.000000 0.998849 0.285199 0.285199 0.285199
5138.658691 0.000000 2337.237793 0.000000 0.220268 0.000000 -0.975439 0.693609 0.693609 0.693609
5137.050293 0.000000 2339.816406 0.000000 0.650898 0.000000 -0.759165 0.621594 0.621594 0.621594
5187.455078 0.000000 2336.067627 0.000000 0.809187 0.000000 -0.587551 0.583883 0.583883 0.583883
5180.369141 0.000000 2336.874023 0.000000 0.518976 0.000000 -0.854789 0.639995 0.639995 0.639995
5185.802734 0.000000 2337.482666 0.000000 0.931737 0.000000 -0.363133 0.552142 0.552142 0.552142
5211.395508 0.000000 2308.354736 0.000000 0.106065 0.000000 0.994359 0.297077 0.297077 0.297077
5200.776855 0.000000 2304.596436 0.000000 0.701629 0.000000 -0.712542 0.604151 0.604151 0.604151
"}
object={
	name="rock_red_generator_1_5"
	clamp_to_water_level=no
	render_under_water=no
	generated_content=yes
	layer="rock_layer"
	pdxmesh="rock_L_red_mesh"
	count=188
	transform="5039.713867 0.000000 2297.391846 0.000000 0.831205 0.000000 0.555965 0.421260 0.421260 0.421260
4723.549316 0.000000 2426.664063 0.000000 0.973160 0.000000 0.230128 0.468811 0.468811 0.468811
4746.027832 0.000000 2426.177490 0.000000 0.014938 0.000000 -0.999888 0.718685 0.718685 0.718685
4746.633789 0.000000 2427.907959 0.000000 0.975479 0.000000 -0.220091 0.531190 0.531190 0.531190
4776.647461 0.000000 2416.537598 0.000000 0.509732 0.000000 0.860333 0.357757 0.357757 0.357757
4783.279297 0.000000 2418.806885 0.000000 0.903618 0.000000 -0.428339 0.558902 0.558902 0.558902
4779.706055 0.000000 2412.834473 0.000000 0.318665 0.000000 -0.947867 0.661196 0.661196 0.661196
4780.626953 0.000000 2419.086182 0.000000 0.883028 0.000000 -0.469320 0.567079 0.567079 0.567079
4689.527344 0.000000 2446.004395 0.000000 0.040722 0.000000 0.999171 0.289525 0.289525 0.289525
4691.104004 0.000000 2443.918457 0.000000 0.795524 0.000000 0.605922 0.409159 0.409159 0.409159
4697.213867 0.000000 2445.959473 0.000000 0.362723 0.000000 -0.931897 0.661424 0.661424 0.661424
4694.232422 0.000000 2443.729492 0.000000 0.650315 0.000000 -0.759665 0.625579 0.625579 0.625579
4691.537109 0.000000 2445.746826 0.000000 0.951150 0.000000 0.308728 0.452908 0.452908 0.452908
4694.500488 0.000000 2442.216309 0.000000 0.951140 0.000000 0.308760 0.454314 0.454314 0.454314
4716.077148 0.000000 2488.919678 0.000000 0.460127 0.000000 0.887853 0.355150 0.355150 0.355150
4707.465332 0.000000 2493.904785 0.000000 0.411854 0.000000 -0.911250 0.655396 0.655396 0.655396
4714.457031 0.000000 2490.913086 0.000000 0.758861 0.000000 0.651253 0.401730 0.401730 0.401730
4752.450684 0.000000 2453.510010 0.000000 0.328447 0.000000 0.944523 0.337672 0.337672 0.337672
4755.797852 0.000000 2451.742676 0.000000 0.562113 0.000000 0.827061 0.367252 0.367252 0.367252
4754.134766 0.000000 2452.897705 0.000000 0.804638 0.000000 -0.593766 0.591260 0.591260 0.591260
4759.585938 0.000000 2455.182861 0.000000 0.097746 0.000000 -0.995211 0.718790 0.718790 0.718790
4724.952148 0.000000 2480.520752 0.000000 0.988465 0.000000 -0.151448 0.519851 0.519851 0.519851
4668.116211 0.000000 2519.876953 0.000000 0.829748 0.000000 -0.558138 0.576133 0.576133 0.576133
4671.197266 0.000000 2526.968506 0.000000 0.829011 0.000000 0.559232 0.423698 0.423698 0.423698
4703.787109 0.000000 2497.296631 0.000000 0.119386 0.000000 -0.992848 0.690922 0.690922 0.690922
4711.351563 0.000000 2497.167969 0.000000 0.995095 0.000000 0.098929 0.487284 0.487284 0.487284
4700.416016 0.000000 2496.834961 0.000000 0.154501 0.000000 -0.987993 0.685904 0.685904 0.685904
4767.119629 0.000000 2495.990723 0.000000 0.650622 0.000000 -0.759402 0.614755 0.614755 0.614755
4753.290527 0.000000 2536.531006 0.000000 0.948301 0.000000 -0.317373 0.541362 0.541362 0.541362
4736.651367 0.000000 2544.506348 0.000000 0.999883 0.000000 0.015272 0.497972 0.497972 0.497972
4752.903320 0.000000 2541.408203 0.000000 0.464585 0.000000 0.885529 0.357989 0.357989 0.357989
4744.658203 0.000000 2543.017822 0.000000 0.858722 0.000000 -0.512441 0.573339 0.573339 0.573339
4930.435547 0.000000 2334.445801 0.000000 0.358795 0.000000 0.933416 0.336206 0.336206 0.336206
4911.173828 0.000000 2367.007568 0.000000 0.463116 0.000000 0.886298 0.359948 0.359948 0.359948
4912.435059 0.000000 2357.533447 0.000000 0.517479 0.000000 -0.855696 0.634081 0.634081 0.634081
4901.194824 0.000000 2366.378174 0.000000 0.470766 0.000000 0.882258 0.352966 0.352966 0.352966
4910.620117 0.000000 2360.352051 0.000000 0.761417 0.000000 0.648263 0.398401 0.398401 0.398401
4910.074707 0.000000 2363.116455 0.000000 0.640495 0.000000 0.767962 0.372987 0.372987 0.372987
4911.849609 0.000000 2359.142578 0.000000 0.373319 0.000000 -0.927703 0.667900 0.667900 0.667900
4920.804199 0.000000 2336.588623 0.000000 0.926817 0.000000 0.375512 0.450795 0.450795 0.450795
4943.263672 0.000000 2354.822510 0.000000 0.998940 0.000000 0.046035 0.493999 0.493999 0.493999
4926.538086 0.000000 2362.819336 0.000000 0.120404 0.000000 -0.992725 0.689339 0.689339 0.689339
4924.569336 0.000000 2356.176270 0.000000 0.681402 0.000000 0.731910 0.392377 0.392377 0.392377
4930.033691 0.000000 2337.446533 0.000000 0.279363 0.000000 0.960186 0.325119 0.325119 0.325119
4922.058105 0.000000 2360.689941 0.000000 0.765688 0.000000 0.643212 0.398307 0.398307 0.398307
4955.778320 0.000000 2355.766113 0.000000 0.112826 0.000000 -0.993615 0.707076 0.707076 0.707076
4823.775391 0.000000 2369.327881 0.000000 0.008241 0.000000 -0.999966 0.705192 0.705192 0.705192
4827.490234 0.000000 2368.059814 0.000000 0.912898 0.000000 -0.408187 0.555215 0.555215 0.555215
4821.114258 0.000000 2377.367188 0.000000 0.888235 0.000000 0.459389 0.437440 0.437440 0.437440
4835.590820 0.000000 2382.534180 0.000000 0.727324 0.000000 -0.686294 0.601404 0.601404 0.601404
4840.812012 0.000000 2400.572998 0.000000 0.514914 0.000000 -0.857242 0.632158 0.632158 0.632158
4847.111816 0.000000 2400.014160 0.000000 0.606976 0.000000 -0.794720 0.620163 0.620163 0.620163
4840.094238 0.000000 2405.549805 0.000000 0.476227 0.000000 -0.879323 0.638948 0.638948 0.638948
4884.019531 0.000000 2377.165527 0.000000 0.512594 0.000000 -0.858631 0.632247 0.632247 0.632247
4966.534180 0.000000 2330.827148 0.000000 0.857445 0.000000 -0.514575 0.569630 0.569630 0.569630
4996.558594 0.000000 2312.811035 0.000000 0.177773 0.000000 -0.984071 0.683847 0.683847 0.683847
4971.353516 0.000000 2325.910156 0.000000 0.162029 0.000000 0.986786 0.312636 0.312636 0.312636
4969.397461 0.000000 2326.829590 0.000000 0.947356 0.000000 0.320182 0.454190 0.454190 0.454190
4959.745605 0.000000 2352.898193 0.000000 0.999974 0.000000 0.007193 0.499068 0.499068 0.499068
4996.049805 0.000000 2360.950928 0.000000 0.646984 0.000000 0.762503 0.376165 0.376165 0.376165
4995.095703 0.000000 2365.355225 0.000000 0.371953 0.000000 -0.928252 0.656227 0.656227 0.656227
5024.312988 0.000000 2347.224609 0.000000 0.416268 0.000000 0.909242 0.353525 0.353525 0.353525
5009.496094 0.000000 2350.027832 0.000000 0.653613 0.000000 0.756829 0.387913 0.387913 0.387913
5036.045898 0.000000 2360.950928 0.000000 0.321957 0.000000 -0.946754 0.661367 0.661367 0.661367
5001.414063 0.000000 2358.296387 0.000000 0.558789 0.000000 -0.829310 0.633783 0.633783 0.633783
5038.407227 0.000000 2359.608887 0.000000 0.998522 0.000000 -0.054347 0.507358 0.507358 0.507358
5029.720215 0.000000 2348.988770 0.000000 0.977862 0.000000 -0.209252 0.529525 0.529525 0.529525
5060.126465 0.000000 2329.771240 0.000000 0.906641 0.000000 0.421903 0.441500 0.441500 0.441500
5054.519531 0.000000 2326.768799 0.000000 0.988833 0.000000 -0.149030 0.519830 0.519830 0.519830
5050.766602 0.000000 2329.042480 0.000000 0.992783 0.000000 -0.119921 0.515696 0.515696 0.515696
5063.799316 0.000000 2327.145264 0.000000 0.093697 0.000000 0.995601 0.299042 0.299042 0.299042
5057.561035 0.000000 2327.863770 0.000000 0.858058 0.000000 -0.513553 0.572438 0.572438 0.572438
5061.445801 0.000000 2327.760254 0.000000 0.998897 0.000000 0.046950 0.493563 0.493563 0.493563
5079.733887 0.000000 2320.906006 0.000000 0.482436 0.000000 -0.875931 0.636700 0.636700 0.636700
5039.549316 0.000000 2356.654541 0.000000 0.694102 0.000000 0.719877 0.389654 0.389654 0.389654
5084.916992 0.000000 2352.552002 0.000000 0.650486 0.000000 0.759518 0.385652 0.385652 0.385652
5089.759766 0.000000 2355.622803 0.000000 0.278707 0.000000 -0.960376 0.675295 0.675295 0.675295
5089.795898 0.000000 2352.055908 0.000000 0.993997 0.000000 0.109411 0.483852 0.483852 0.483852
5087.807617 0.000000 2349.086914 0.000000 0.974760 0.000000 0.223256 0.467623 0.467623 0.467623
4988.084961 0.000000 2391.908203 0.000000 0.260238 0.000000 0.965544 0.330583 0.330583 0.330583
4980.134277 0.000000 2393.755615 0.000000 0.966160 0.000000 0.257945 0.465088 0.465088 0.465088
4983.259766 0.000000 2386.814697 0.000000 0.994092 0.000000 0.108544 0.485935 0.485935 0.485935
4992.427246 0.000000 2389.525635 0.000000 0.902025 0.000000 0.431683 0.442165 0.442165 0.442165
4983.807129 0.000000 2391.129639 0.000000 0.204018 0.000000 0.978967 0.316275 0.316275 0.316275
4975.731934 0.000000 2394.384033 0.000000 0.985769 0.000000 0.168103 0.477271 0.477271 0.477271
4995.575195 0.000000 2382.534180 0.000000 0.833575 0.000000 0.552406 0.419786 0.419786 0.419786
4993.301270 0.000000 2387.405029 0.000000 0.986609 0.000000 0.163103 0.477790 0.477790 0.477790
5009.496094 0.000000 2382.020020 0.000000 0.976555 0.000000 -0.215266 0.528166 0.528166 0.528166
5017.763672 0.000000 2376.110352 0.000000 0.560507 0.000000 0.828150 0.374539 0.374539 0.374539
5006.530273 0.000000 2394.811523 0.000000 0.943385 0.000000 0.331698 0.456107 0.456107 0.456107
5036.225586 0.000000 2370.123779 0.000000 0.760419 0.000000 0.649432 0.404885 0.404885 0.404885
5019.682617 0.000000 2380.842285 0.000000 0.754027 0.000000 0.656843 0.400527 0.400527 0.400527
5016.349609 0.000000 2379.414307 0.000000 0.998915 0.000000 0.046560 0.493744 0.493744 0.493744
5017.182617 0.000000 2381.975098 0.000000 0.360038 0.000000 -0.932938 0.669617 0.669617 0.669617
5017.921387 0.000000 2380.251709 0.000000 0.154538 0.000000 -0.987987 0.699683 0.699683 0.699683
5006.499023 0.000000 2398.816895 0.000000 0.977309 0.000000 0.211818 0.469148 0.469148 0.469148
4967.937988 0.000000 2421.294189 0.000000 0.977831 0.000000 -0.209397 0.528440 0.528440 0.528440
4972.046875 0.000000 2418.400879 0.000000 0.465268 0.000000 -0.885170 0.642996 0.642996 0.642996
4996.134277 0.000000 2405.228271 0.000000 0.998329 0.000000 -0.057791 0.507868 0.507868 0.507868
4998.190430 0.000000 2400.213135 0.000000 0.962738 0.000000 -0.270435 0.537123 0.537123 0.537123
5004.784668 0.000000 2404.332520 0.000000 0.106462 0.000000 0.994317 0.302981 0.302981 0.302981
5003.984375 0.000000 2400.607666 0.000000 0.754248 0.000000 0.656590 0.392705 0.392705 0.392705
5003.796875 0.000000 2402.570068 0.000000 0.225095 0.000000 0.974337 0.302741 0.302741 0.302741
5057.217285 0.000000 2367.840820 0.000000 0.948588 0.000000 -0.316514 0.541407 0.541407 0.541407
5118.991699 0.000000 2402.817383 0.000000 0.462560 0.000000 0.886588 0.340820 0.340820 0.340820
5118.178711 0.000000 2400.213135 0.000000 0.509400 0.000000 -0.860530 0.639191 0.639191 0.639191
5112.151855 0.000000 2406.521484 0.000000 0.791205 0.000000 -0.611551 0.595117 0.595117 0.595117
4952.883789 0.000000 2445.431641 0.000000 0.044461 0.000000 -0.999011 0.702339 0.702339 0.702339
4964.928711 0.000000 2448.528564 0.000000 0.550633 0.000000 0.834748 0.370300 0.370300 0.370300
4641.208008 0.000000 2588.387451 0.000000 0.766645 0.000000 0.642071 0.410882 0.410882 0.410882
4657.371582 0.000000 2589.792969 0.000000 0.377144 0.000000 -0.926155 0.653719 0.653719 0.653719
4663.295898 0.000000 2586.171387 0.000000 0.887281 0.000000 -0.461229 0.563550 0.563550 0.563550
4713.294434 0.000000 2568.523193 0.000000 0.912067 0.000000 -0.410041 0.554111 0.554111 0.554111
4684.389160 0.000000 2590.104980 0.000000 0.261532 0.000000 0.965195 0.326843 0.326843 0.326843
4684.592773 0.000000 2580.121582 0.000000 0.064368 0.000000 -0.997926 0.704209 0.704209 0.704209
4707.465332 0.000000 2589.881348 0.000000 0.951130 0.000000 0.308789 0.457601 0.457601 0.457601
4668.116211 0.000000 2615.853516 0.000000 0.264188 0.000000 0.964471 0.332089 0.332089 0.332089
4660.165527 0.000000 2617.700928 0.000000 0.992544 0.000000 0.121887 0.483741 0.483741 0.483741
4663.291016 0.000000 2610.760010 0.000000 0.791771 0.000000 0.610818 0.411907 0.411907 0.411907
4678.885254 0.000000 2598.327881 0.000000 0.986727 0.000000 0.162386 0.478499 0.478499 0.478499
4665.047852 0.000000 2620.723389 0.000000 0.462120 0.000000 0.886817 0.355992 0.355992 0.355992
4678.015137 0.000000 2612.717529 0.000000 0.522927 0.000000 -0.852377 0.634267 0.634267 0.634267
4663.838379 0.000000 2615.074951 0.000000 0.361306 0.000000 0.932447 0.341370 0.341370 0.341370
4655.763184 0.000000 2618.329346 0.000000 0.332301 0.000000 -0.943174 0.662099 0.662099 0.662099
4674.569824 0.000000 2603.087402 0.000000 0.977503 0.000000 -0.210922 0.528226 0.528226 0.528226
4650.646484 0.000000 2601.490723 0.000000 0.519729 0.000000 0.854331 0.360893 0.360893 0.360893
4657.979004 0.000000 2618.511963 0.000000 0.514415 0.000000 0.857542 0.358763 0.358763 0.358763
4674.588379 0.000000 2598.706787 0.000000 0.904583 0.000000 -0.426298 0.562010 0.562010 0.562010
4677.016113 0.000000 2598.786377 0.000000 0.999995 0.000000 -0.003078 0.500430 0.500430 0.500430
4679.772949 0.000000 2608.835693 0.000000 0.944872 0.000000 -0.327439 0.542724 0.542724 0.542724
4694.554688 0.000000 2614.698486 0.000000 0.269161 0.000000 0.963095 0.332430 0.332430 0.332430
4687.127441 0.000000 2591.967285 0.000000 0.418171 0.000000 0.908369 0.349811 0.349811 0.349811
4736.651367 0.000000 2576.498535 0.000000 0.369077 0.000000 0.929399 0.345748 0.345748 0.345748
4739.709961 0.000000 2572.795410 0.000000 0.160336 0.000000 0.987062 0.315928 0.315928 0.315928
4758.007324 0.000000 2580.725342 0.000000 0.009628 0.000000 0.999954 0.292651 0.292651 0.292651
4745.180176 0.000000 2568.068115 0.000000 0.994838 0.000000 -0.101474 0.513425 0.513425 0.513425
4657.256348 0.000000 2623.778320 0.000000 0.518138 0.000000 -0.855297 0.634749 0.634749 0.634749
4667.505859 0.000000 2623.997314 0.000000 0.985684 0.000000 -0.168605 0.522374 0.522374 0.522374
4678.522949 0.000000 2651.821289 0.000000 0.721856 0.000000 0.692044 0.395815 0.395815 0.395815
4697.794922 0.000000 2632.047852 0.000000 0.640683 0.000000 0.767805 0.382420 0.382420 0.382420
4682.533691 0.000000 2637.799316 0.000000 0.829378 0.000000 -0.558687 0.577550 0.577550 0.577550
4679.749023 0.000000 2649.305908 0.000000 0.698070 0.000000 -0.716030 0.605403 0.605403 0.605403
5247.910645 0.000000 2261.333252 0.000000 0.518297 0.000000 -0.855200 0.633444 0.633444 0.633444
5260.274414 0.000000 2256.750732 0.000000 0.381283 0.000000 -0.924458 0.658439 0.658439 0.658439
5251.326172 0.000000 2261.925781 0.000000 0.857751 0.000000 -0.514066 0.572114 0.572114 0.572114
5249.740723 0.000000 2267.739990 0.000000 0.164084 0.000000 -0.986446 0.687437 0.687437 0.687437
5261.935547 0.000000 2254.480713 0.000000 0.926932 0.000000 0.375230 0.448625 0.448625 0.448625
5258.351563 0.000000 2258.459229 0.000000 0.762706 0.000000 -0.646745 0.597625 0.597625 0.597625
5224.993164 0.000000 2300.801514 0.000000 0.719481 0.000000 -0.694512 0.600435 0.600435 0.600435
5217.316895 0.000000 2301.863281 0.000000 0.098229 0.000000 -0.995164 0.695192 0.695192 0.695192
5215.708496 0.000000 2298.407471 0.000000 0.880758 0.000000 -0.473566 0.564661 0.564661 0.564661
5223.630859 0.000000 2303.285156 0.000000 0.517071 0.000000 0.855943 0.360727 0.360727 0.360727
5252.408203 0.000000 2271.930420 0.000000 0.211992 0.000000 0.977271 0.322793 0.322793 0.322793
5336.592773 0.000000 2224.584473 0.000000 0.976406 0.000000 0.215943 0.470928 0.470928 0.470928
5334.492188 0.000000 2230.792236 0.000000 0.272981 0.000000 -0.962020 0.671582 0.671582 0.671582
5343.771973 0.000000 2231.168701 0.000000 0.907148 0.000000 0.420811 0.440686 0.440686 0.440686
5336.591797 0.000000 2229.697754 0.000000 0.717961 0.000000 0.696083 0.394858 0.394858 0.394858
5344.531250 0.000000 2232.908203 0.000000 0.733524 0.000000 0.679664 0.394962 0.394962 0.394962
5137.324707 0.000000 2333.855469 0.000000 0.512882 0.000000 -0.858459 0.637874 0.637874 0.637874
5134.763184 0.000000 2334.650635 0.000000 0.988364 0.000000 -0.152105 0.522072 0.522072 0.522072
5184.997070 0.000000 2332.793701 0.000000 0.961392 0.000000 -0.275182 0.536957 0.536957 0.536957
5196.209961 0.000000 2306.139404 0.000000 0.372791 0.000000 -0.927915 0.656406 0.656406 0.656406
5181.167480 0.000000 2334.385986 0.000000 0.961791 0.000000 0.273783 0.462474 0.462474 0.462474
5187.418457 0.000000 2333.943848 0.000000 0.966968 0.000000 -0.254898 0.535004 0.535004 0.535004
5154.786621 0.000000 2353.549561 0.000000 0.973753 0.000000 0.227607 0.469789 0.469789 0.469789
5151.150391 0.000000 2367.007568 0.000000 0.383376 0.000000 -0.923592 0.651080 0.651080 0.651080
5137.209473 0.000000 2335.848633 0.000000 0.687009 0.000000 0.726649 0.380794 0.380794 0.380794
5151.825684 0.000000 2362.658936 0.000000 0.217264 0.000000 0.976113 0.315061 0.315061 0.315061
5138.827148 0.000000 2339.787842 0.000000 0.267648 0.000000 -0.963517 0.686919 0.686919 0.686919
5133.447754 0.000000 2349.810303 0.000000 0.153726 0.000000 -0.988113 0.686714 0.686714 0.686714
5127.995117 0.000000 2339.463867 0.000000 0.055301 0.000000 0.998470 0.290776 0.290776 0.290776
5130.599609 0.000000 2345.553223 0.000000 0.993009 0.000000 -0.118040 0.516157 0.516157 0.516157
5171.399414 0.000000 2340.346924 0.000000 0.988301 0.000000 0.152515 0.480390 0.480390 0.480390
5159.726074 0.000000 2352.898193 0.000000 0.965875 0.000000 0.259008 0.466511 0.466511 0.466511
5183.740234 0.000000 2337.335693 0.000000 0.211542 0.000000 0.977369 0.310531 0.310531 0.310531
5187.621094 0.000000 2341.986816 0.000000 0.885823 0.000000 0.464024 0.436394 0.436394 0.436394
5174.509766 0.000000 2343.006592 0.000000 0.152320 0.000000 -0.988331 0.693628 0.693628 0.693628
5177.152344 0.000000 2338.144775 0.000000 0.617633 0.000000 -0.786467 0.624727 0.624727 0.624727
5217.201660 0.000000 2303.856445 0.000000 0.257136 0.000000 -0.966375 0.675069 0.675069 0.675069
5207.076660 0.000000 2304.037598 0.000000 0.696547 0.000000 -0.717511 0.611677 0.611677 0.611677
5218.819336 0.000000 2307.795654 0.000000 0.947551 0.000000 0.319605 0.457524 0.457524 0.457524
5220.365234 0.000000 2304.881836 0.000000 0.652902 0.000000 0.757442 0.384572 0.384572 0.384572
5203.964844 0.000000 2304.631104 0.000000 0.949627 0.000000 -0.313383 0.542415 0.542415 0.542415
5203.777344 0.000000 2306.593506 0.000000 0.215130 0.000000 -0.976585 0.693351 0.693351 0.693351
5203.033691 0.000000 2308.602295 0.000000 0.616055 0.000000 -0.787703 0.631117 0.631117 0.631117
5212.758301 0.000000 2307.776855 0.000000 0.821484 0.000000 0.570232 0.410016 0.410016 0.410016
5209.041504 0.000000 2306.598877 0.000000 0.999889 0.000000 0.014906 0.497756 0.497756 0.497756
5120.066895 0.000000 2405.549805 0.000000 0.560466 0.000000 0.828178 0.364544 0.364544 0.364544
"}
