﻿persian_philosophy = { 
	color = hsv { 1.72 0.64 0.7 }
	image = persian_achaemenid_path_2
	
	allow = {
		trigger_if = {
			limit = { country_culture_group = gutian }
			custom_tooltip = {
				text = "began_with_tradition_group"
			}
			country_culture_group = gutian
		}
		trigger_else_if = {
			limit = { country_culture_group = elamite }
			custom_tooltip = {
				text = "began_with_tradition_group"
			}
			country_culture_group = elamite
		}
		trigger_else_if = {
			limit = { country_culture_group = hurrian }
			custom_tooltip = {
				text = "began_with_tradition_group"
			}
			country_culture_group = hurrian
		}
		trigger_else = {
			always = no
		}
	}

	persian_bactrian_path_4 = { ###Persia 1A
		modifier = { price_found_city_cost_modifier = -0.1 }
		enable_ability = military_colonies 
		icon = persian_bactrian_path_4
		requires = {}
		on_activate = {
			ordered_owned_province = {
				limit = {
					NOT = { dominant_province_culture_group = root.culture_group }
					any_neighbor_province = {
						count > 1
						NOT = { dominant_province_culture_group = root.culture_group }
					}
					state = {
						NOT = {
							any_state_province = {
								is_capital = yes
							}
						}
					}
				}
				order_by = {
					value = 0
					add = population_cap
					subtract = total_population
				}
				add_province_modifier = {
					name = "local_colonia"
					duration = -1
				}
				custom_tooltip = military_colonia_here_tt
				trigger_event = { id = cultural_integration.11 }
			}
		}
	}

	persian_scythian_path_7 = { ###Persia 2AA
		modifier = { 
			light_infantry_offensive = 0.1
		}
		icon = persian_scythian_path_7
		requires = {persian_bactrian_path_4}
	}

	persian_bactrian_path_1 = { ###Persia 3AA
		modifier = { 
			light_cavalry_offensive = 0.1
		}
		icon = persian_bactrian_path_1
		requires = { persian_scythian_path_7 }
	}

	persian_scythian_path_2 = { ###Persia 4A
		modifier = {
			light_cavalry_defensive = 0.1
			light_infantry_defensive = 0.1
			war_exhaustion = -0.01
		}
		icon = persian_scythian_path_2
		requires = {persian_bactrian_path_1 }
	}

	persian_bactrian_path_7 = { ###Persia 1B
		modifier = {
			land_unit_attrition = -0.15
			hills_combat_bonus = 0.05
		}
		icon = persian_bactrian_path_7
		requires = {}
	}

	persian_achaemenid_path_end_bonus = { ###Persia 2BA
		modifier = {
			siege_ability = 0.1
		}
		icon = persian_achaemenid_path_end_bonus
		requires = {persian_bactrian_path_7}
	}

	persian_achaemenid_path_3 = { ###Persia 2BB
		modifier = {
			naval_damage_taken = -0.1
		}
		allow_unit_type = octere
		icon = persian_achaemenid_path_3
		requires = {persian_bactrian_path_7}
	}

	persian_bactrian_path_end_bonus = { ###Persia 3B
		modifier = {
			mercenary_land_maintenance_cost = -0.1
		}
		icon = persian_bactrian_path_end_bonus
		requires = {persian_achaemenid_path_3 }
		on_activate = {
			ordered_owned_province = {
				order_by = {
					value = 0
					add = population_cap
					subtract = total_population
				}
				check_range_bounds = no
				max = 6
				create_2_freemen_effect = yes
			}
		}
	}

	persian_achaemenid_path_7 = { ###Persia 4B
		modifier = {
			heavy_infantry_cost = -0.15
		}
		icon = persian_achaemenid_path_7
		requires = {persian_achaemenid_path_end_bonus }
	}

	persian_achaemenid_path_2 = { ###Persia 5B
		modifier = {
			heavy_infantry_defensive = 0.1
		}
		icon = persian_achaemenid_path_2
		requires = {persian_achaemenid_path_7}
		on_activate = {
			custom_tooltip = "create_high_martial_rising_star"
			hidden_effect = {
				create_character = {
					add_martial = 8
					add_trait = confident
				}
			}
		}
	}

	persian_bactrian_path_3 = { ###Persia 6B
		modifier = {
			heavy_infantry_offensive = 0.15
		}
		icon = persian_bactrian_path_3
		requires = {persian_achaemenid_path_2}
	}

}