provinces = {
	2133={ # Tentyris
		great_work=1
	}
}

great_work_manager={	
	great_works_database={
		1={
			ancient_wonder = yes
			key="giza_pyramids"
			great_work_state=great_work_state_completed
			finished_date=430.1.1
			great_work_category="building"

			great_work_name={
				name="wonder_giza"
			}
			great_work_components={
				{
					great_work_module="wonder_giza"
				}
			}
			great_work_effect_selections={
				{
					great_work_effect="gw_effect_overlord_boost"
					great_work_effect_tier = "gw_effect_tier_4"
				}
			}
		}
	}
}
