﻿#Scope is State when checked.

acquisition_of_wealth = {
	province = {
		monthly_local_governor_wage = 0.2
		local_tax_modifier = 0.1
		state_commerce_modifier = 0.1
	}

	ai_will_do = {
		modifier = {
			add = 6
			governor_or_ruler = { has_trait = gluttonous }
		}
		modifier = {
			add = 15
			governor_or_ruler = { loyalty <= 40 }
		}
		modifier = {
			add = {
				value = governor_or_ruler.corruption
				divide = 2
			}
		}
	}
	
	
	on_action = acquisition_of_wealth_pulse
}

religious_conversion = {
	province = {
		local_pop_conversion_speed = 3
	}
	ai_will_do = {
		modifier = {
			add = {
				value = governor_or_ruler.zeal
				divide = 4
			}
		}
		modifier = {
			add = 5
			governor_or_ruler = { has_trait = pious }
		}
		modifier = {
			add = 4
			governor_or_ruler = { has_trait = zealous }
		}
		modifier = { # Won't do if all state territories follow country religion
			factor = 0
			any_state_province = {
				count = all
				dominant_province_religion = governor_or_ruler.religion
			}
		}
	}

	#deprecated on_action = religious_conversion_pulse
}

cultural_assimilation = {
	province = {
		local_pop_assimilation_speed = 1
	}
	ai_will_do = {
		modifier = {
			add = {
				value = governor_or_ruler.finesse
				divide = 2
			}
		}
		modifier = { # More likely if state is loyal and has territories without integrated culture or the governor's culture
			add = 4
			state_level_loyalty >= 60
			any_state_province = {
				NOR = {
					dominant_province_culture = governor_or_ruler.culture
					owner = {
						any_country_culture = {
							is_integrated = yes
							this.culture = prev.prev.culture
						}
					}
				}
			}
		}
		modifier = { # Won't do if governor is not of integrated culture
			factor = 0
			governor_or_ruler = {
				NOR = {
					has_culture = employer.culture
					employer = {
						any_country_culture = {
							is_integrated = yes
							this.culture = prev.prev.culture
						}
					}
				}
			}
		}
		modifier = { # Won't do if all state territories already have governor's culture or the dominant culture of the owner
			factor = 0
			any_state_province = {
				count = all
				OR = {
					dominant_province_culture = governor_or_ruler.culture
					owner = {
						any_country_culture = {
							is_integrated = yes
							this.culture = prev.prev.culture
						}
					}
				}
			}
		}
	}

	#deprecated on_action = culture_conversion_pulse
}

bleed_them_dry = {
	province = {
		local_monthly_food_modifier = -0.25
		local_monthly_state_loyalty = -0.25
		local_tax_modifier = 0.3
		local_slaves_happyness = -0.10
		state_commerce_modifier = 0.2
	}

	ai_will_do = {
	
		modifier = {
			add = 5
			governor_or_ruler = { has_trait = miserly }
		}
		modifier = {
			add = 5
			governor_or_ruler = { has_trait = shrewd }
		}
		modifier = {
			add = 10
			governor_or_ruler = { corruption >= 30 }
		}
		modifier = {
			factor = 0
			governor_or_ruler = { is_ruler = yes }
		}
		modifier = {
			factor = 0
			governor_or_ruler = { employer = { is_ai = yes } }
		}
		modifier = {
			factor = 0
			has_state_food <= 800
		}
	}
}

borderlands = {
	province = {
		local_manpower_modifier = 0.25
		local_defensive = 0.2
	}

	ai_will_do = {
		modifier = {
			add = 10
			any_state_province = {
				num_of_freemen >= 15
			}
		}
		modifier = {
			add = 6
			governor_or_ruler = { has_trait = suspicious }
		}
		modifier = {
			add = 6
			governor_or_ruler = { has_trait = stubborn }
		}
	}

}

encourage_trade = {
	
	province = {
		state_commerce_modifier = 0.25
		local_monthly_food_modifier = 0.1
	}

	
	ai_will_do = {
		modifier = {
			add = trade_routes
		}
		modifier = {
			add = 6
			governor_or_ruler = { has_trait = silver_tongued }
		}
		modifier = {
			add = 6
			governor_or_ruler = { has_trait = crafty }
		}
		modifier = {
			add = 10
			governor_or_ruler.employer = {
				is_republic = yes
			}
			governor_or_ruler = { character_traditionalist_party_trigger = yes }
		}
		modifier = {
			add = 20

			has_state_food <= governor_policy_food_svalue

		}
	}


}

social_mobility = {
	province = {
		local_pop_promotion_speed_modifier = 1.5
		local_pop_demotion_speed_modifier = 1.5
	}
	
	ai_will_do = {
		modifier = {
			factor = 0
		}
	}

	#deprecated on_action = social_mobility_pulse
}

harsh_treatment = {
	province = {
		local_migration_speed = 1
		local_migration_attraction = -6
		local_monthly_state_loyalty = 0.3
		local_output_modifier = -0.4
		local_slaves_happyness = -0.15
		local_pop_demotion_speed_modifier = 1
	}

	ai_will_do = {
		modifier = {
			add = local_autonomy_svalue
		}
		modifier = {
			add = 11
			state_level_loyalty < 40
		}
		modifier = {
			add = 9
			governor_or_ruler = { employer = { is_ai = yes } }
			state_level_loyalty < 40
		}
		modifier = {
			factor = 0
			state_level_loyalty >= 40
		}
	}
	
	
	#on_action = acquisition_of_wealth_pulse
}

local_autonomy = {
	province = {
		local_citizen_happyness = 0.15
		local_freemen_happyness = 0.15
		local_tribesmen_happyness = 0.15
		local_slaves_happyness = 0.15
		local_nobles_happyness = 0.1
	
		local_output_modifier = -0.4
		
	}

	
	ai_will_do = {
		modifier = {
			add = local_autonomy_svalue
		}
		modifier = {
			add = 5
			governor_or_ruler = { has_trait = submissive }
		}
		modifier = {
			add = 3
			governor_or_ruler = { has_trait = generous }
		}
		modifier = {
			add = 3
			governor_or_ruler = { has_trait = kindly }
		}
		modifier = {
			add = -30
			exists = owner.capital_scope.state
			this = owner.capital_scope.state
		}
	}
}




civilization_effort = {
	province = {
		local_monthly_civilization = 0.05
	}

	ai_will_do = {
		modifier = {
			add = 11
			governor_or_ruler = { has_trait = intelligent }
		}
		modifier = {
			add = 11
			governor_or_ruler = { has_trait = polymath }
		}
		modifier = {
			add = 20
			any_state_province = {
				any_neighbor_province = {
					OR = {
						has_province_modifier = minor_barbarian_spawn_place
						has_province_modifier = generic_barbarian_spawn_place
						has_province_modifier = major_barbarian_spawn_place
					}
				}
			}
		}
		modifier = {
			add = -30
			governor_or_ruler.employer = {
				is_tribal = yes
				centralization <= 40
			}
		}
	}

	on_action = civilization_effort_pulse

}

centralize_pops = {

	province = {
		local_migration_speed = 2
	}
	
	capital = {
		local_migration_attraction = 1
	}
	non_capital = {
		local_migration_attraction = -5
	}

	ai_will_do = {
		base = 0
	}

	#deprecated on_action = centralize_pops_pulse

}

decentralize_pops = {

	province = {
		local_migration_speed = 2
	}
	
	capital = {
		local_migration_attraction = -5
	}
	non_capital = {
		local_migration_attraction = 1
	}


	ai_will_do = {
		base = 0
	}

	#deprecatedon_action = decentralize_pops_pulse

}

tribal_integration = {

	province = {
		local_tribesmen_happyness = 0.3
		local_tribesmen_output = -0.5
		local_pop_promotion_speed_modifier = -0.5
		local_pop_demotion_speed_modifier = -0.5
	}

	ai_will_do = {
	}

}
